Events{26}
  Event (obj_iji,4): Actions{1}
    Action (603,1): Code[14 lines]
if (other.shredder){
if (other.hspeed<0)
    scr_glassbreak(abs(other.hspeed),1);
else
    scr_glassbreak(abs(other.hspeed),2);
}
else{
if (global.state==6){
if (other.knockdowntype==1)
    scr_glassbreak(other.velocity,1);
else
    scr_glassbreak(other.velocity,2);
}
}
  Event (obj_bullet,4): Actions{1}
    Action (601,1): Fields[6]
      scr_glassbreak
      2
      0
      0
      0
      0
  Event (obj_tasensoldier,4): Actions{1}
    Action (603,1): Code[12 lines]
{
other.hp-=1;
with (other){
repeat(3) instance_create(bbox_left+((bbox_right-bbox_left)/2),bbox_top+((bbox_bottom-bbox_top)/2),obj_tasenbloodspecial);
}
if (other.state==4){
if (other.knockdowntype==1)
scr_glassbreak(other.velocity,1);
else
scr_glassbreak(other.velocity,2);
}
}
  Event (obj_pellet,4): Actions{1}
    Action (601,1): Fields[6]
      scr_glassbreak
      global.attacklevel+1
      global.facing+1
      0
      0
      0
  Event (obj_enemybullet,4): Actions{1}
    Action (601,1): Fields[6]
      scr_glassbreak
      2
      0
      0
      0
      0
  Event (obj_kickbox,4): Actions{2}
    Action (601,1): Fields[6]
      scr_shakescreen
      1
      0
      0
      0
      0
    Action (601,1): Fields[6]
      scr_glassbreak
      global.strengthlevel+1
      global.facing+1
      0
      0
      0
  Event (obj_rocketexplosion,4): Actions{1}
    Action (603,1): Code[9 lines]
{
if (other.dud==0){
force=11-(distance_to_object(obj_explosioncenter)/10);
if (bbox_left+((bbox_right-bbox_left)/2) < other.bbox_left+((other.bbox_right-other.bbox_left)/2))
scr_glassbreak(force,1);
else
scr_glassbreak(force,2);
}
}
  Event (obj_mpfbexplosion,4): Actions{1}
    Action (603,1): Code[9 lines]
{
if (other.dud==0){
force=22-(distance_to_object(obj_explosioncenter)/10);
if (bbox_left+((bbox_right-bbox_left)/2) < other.bbox_left+((other.bbox_right-other.bbox_left)/2))
scr_glassbreak(force,1);
else
scr_glassbreak(force,2);
}
}
  Event (obj_tasenscout,4): Actions{1}
    Action (603,1): Code[12 lines]
{
other.hp-=1;
with (other){
repeat(3) instance_create(bbox_left+((bbox_right-bbox_left)/2),bbox_top+((bbox_bottom-bbox_top)/2),obj_tasenbloodspecial);
}
if (other.state==4){
if (other.knockdowntype==1)
scr_glassbreak(other.velocity,1);
else
scr_glassbreak(other.velocity,2);
}
}
  Event (obj_pulse,4): Actions{1}
    Action (601,1): Fields[6]
      scr_glassbreak
      3
      0
      0
      0
      0
  Event (obj_enemyrocketexplosion,4): Actions{1}
    Action (603,1): Code[9 lines]
{
if (other.dud==0){
force=11-(distance_to_object(obj_explosioncenter)/10);
if (bbox_left+((bbox_right-bbox_left)/2) < other.bbox_left+((other.bbox_right-other.bbox_left)/2))
scr_glassbreak(force,1);
else
scr_glassbreak(force,2);
}
}
  Event (obj_shockexplosion,4): Actions{1}
    Action (603,1): Code[9 lines]
{
if (other.dud==0){
force=13-(distance_to_object(obj_explosioncenter)/10);
if (bbox_left+((bbox_right-bbox_left)/2) < other.bbox_left+((other.bbox_right-other.bbox_left)/2))
scr_glassbreak(force,1);
else
scr_glassbreak(force,2);
}
}
  Event (obj_shockballexplosion,4): Actions{1}
    Action (601,1): Fields[6]
      scr_glassbreak
      5
      0
      0
      0
      0
  Event (obj_cfistrace,4): Actions{1}
    Action (601,1): Fields[6]
      scr_glassbreak
      8
      0
      0
      0
      0
  Event (obj_tasencommander,4): Actions{1}
    Action (603,1): Code[12 lines]
{
other.hp-=1;
with (other){
repeat(3) instance_create(bbox_left+((bbox_right-bbox_left)/2),bbox_top+((bbox_bottom-bbox_top)/2),obj_tasenbloodspecial);
}
if (other.state==4){
if (other.knockdowntype==1)
scr_glassbreak(other.velocity,1);
else
scr_glassbreak(other.velocity,2);
}
}
  Event (obj_swipe,4): Actions{1}
    Action (603,1): Code[6 lines]
{
if (other.facing==0)
scr_glassbreak(15,1);
else
scr_glassbreak(15,2);
}
  Event (obj_kickbox_elite,4): Actions{1}
    Action (603,1): Code[6 lines]
{
if (other.facing==0)
scr_glassbreak(15,1);
else
scr_glassbreak(15,2);
}
  Event (obj_enemympfbexplosion,4): Actions{1}
    Action (603,1): Code[9 lines]
{
if (other.dud==0){
force=22-(distance_to_object(obj_explosioncenter)/10);
if (bbox_left+((bbox_right-bbox_left)/2) < other.bbox_left+((other.bbox_right-other.bbox_left)/2))
scr_glassbreak(force,1);
else
scr_glassbreak(force,2);
}
}
  Event (obj_thor,4): Actions{1}
    Action (601,1): Fields[6]
      scr_glassbreak
      15
      0
      0
      0
      0
  Event (obj_turret,4): Actions{1}
    Action (603,1): Code[4 lines]
if (other.hspeed<0)
scr_glassbreak(abs(other.hspeed),1);
else
scr_glassbreak(abs(other.hspeed),2);
  Event (obj_enemyshockballexplosion,4): Actions{1}
    Action (601,1): Fields[6]
      scr_glassbreak
      5
      0
      0
      0
      0
  Event (obj_enemyshockexplosion,4): Actions{1}
    Action (603,1): Code[9 lines]
{
if (other.dud==0){
force=13-(distance_to_object(obj_explosioncenter)/10);
if (bbox_left+((bbox_right-bbox_left)/2) < other.bbox_left+((other.bbox_right-other.bbox_left)/2))
scr_glassbreak(force,1);
else
scr_glassbreak(force,2);
}
}
  Event (obj_komatotrooper,4): Actions{1}
    Action (603,1): Code[12 lines]
{
other.hp-=1;
with (other){
repeat(3) instance_create(bbox_left+((bbox_right-bbox_left)/2),bbox_top+((bbox_bottom-bbox_top)/2),obj_komatobloodspecial);
}
if (other.state==4){
if (other.knockdowntype==1)
scr_glassbreak(other.velocity,1);
else
scr_glassbreak(other.velocity,2);
}
}
  Event (obj_enemypulse,4): Actions{1}
    Action (601,1): Fields[6]
      scr_glassbreak
      3
      0
      0
      0
      0
  Event (obj_komatoberserker,4): Actions{1}
    Action (603,1): Code[12 lines]
{
other.hp-=1;
with (other){
repeat(3) instance_create(bbox_left+((bbox_right-bbox_left)/2),bbox_top+((bbox_bottom-bbox_top)/2),obj_komatobloodspecial);
}
if (other.state==4){
if (other.knockdowntype==1)
scr_glassbreak(other.velocity,1);
else
scr_glassbreak(other.velocity,2);
}
}
  Event (obj_komatobeast,4): Actions{1}
    Action (603,1): Code[2 lines]
scr_glassbreak(other.velocity,other.facing+1);

