Events{5}
  Event (0,0): Actions{1}
    Action (603,1): Code[2 lines]
vspeed=-0.6;
image_single=0;
  Event (0,2): Actions{1}
    Action (603,1): Code[1 lines]
image_single=6;
  Event (1,2): Actions{1}
    Action (603,1): Code[1 lines]
image_single=6;
  Event (0,3): Actions{1}
    Action (603,1): Code[6 lines]
if (fade)
    image_alpha-=0.05;
if (image_alpha<=0){
    instance_destroy();
    instance_create(x,y,obj_torbody3);
    }
  Event (obj_block,4): Actions{1}
    Action (603,1): Code[12 lines]
if (vspeed>1){
    scr_sound("glo_land");
    y-=30;
    vspeed=0;
    gravity=0;
    move_contact_solid(270,60);
    }
sprite_index=spr_torbody_hitfloor;
image_single=-1;
image_index=0;
image_speed=0.5;
alarm[0]=14;
