Events{4}
  Event (0,0): Actions{1}
    Action (603,1): Code[1 lines]
vspeed=-0.85;
  Event (0,2): Actions{1}
    Action (603,1): Code[1 lines]
image_single=3;
  Event (0,3): Actions{1}
    Action (603,1): Code[4 lines]
if (fade)
    image_alpha-=0.05;
if (image_alpha<=0)
    instance_destroy();
  Event (obj_block,4): Actions{1}
    Action (603,1): Code[12 lines]
if (vspeed>1){
    vspeed=0;
    gravity=0;
    move_contact_solid(270,30);
    }
sprite_index=spr_blackstandup;
image_index=0;
image_speed=0.5;
alarm[0]=6;
scr_sound("iji_land2");
obj_torsecsil.vspeed=0;
obj_torsecsil.gravity=0;
