Events{6}
  Event (0,0): Actions{1}
    Action (603,1): Code[10 lines]
alarm[1]=90;
gravity=1;
gravity_direction=270;
image_speed=random(0.5)+0.5;
temprand=random(1);
if (temprand>0.5)
    image_speed*=-1;
vspeed=-(4+random(3));
hspeed=3+random(2);
alarm[0]=6;
  Event (0,2): Actions{1}
    Action (603,1): Code[4 lines]
if (!short_){
alarm[0]=6;
instance_create(x,y,obj_shockemit);
}
  Event (1,2): Actions{1}
    Action (603,1): Code[2 lines]
instance_create(x,y,obj_shockemit);
instance_destroy();
  Event (0,3): Actions{1}
    Action (603,1): Code[2 lines]
if (vspeed>12)
    vspeed=12;
  Event (obj_block,4): Actions{1}
    Action (603,1): Code[13 lines]
scr_sound("glo_shell");
bounce+=1;
instance_create(x,y,obj_shockemit);
if (bounce>2-short_){
    instance_destroy();
    exit;
    }
move_bounce_solid(0);
speed*=0.5;
image_speed=random(0.5)+0.5;
temprand=random(1);
if (temprand>0.5)
    image_speed*=-1;
  Event (obj_glass,4): Actions{1}
    Action (603,1): Code[13 lines]
scr_sound("glo_shell");
bounce+=1;
instance_create(x,y,obj_shockemit);
if (bounce>2-short_){
    instance_destroy();
    exit;
    }
move_bounce_all(0);
speed*=0.5;
image_speed=random(0.5)+0.5;
temprand=random(1);
if (temprand>0.5)
    image_speed*=-1;
