Events{4}
  Event (0,0): Actions{1}
    Action (603,1): Code[8 lines]
{
image_speed=0.5;
speed=6+random(6);
direction=random(360);
gravity=0.8;
gravity_direction=270;
alarm[0]=40;
}
  Event (0,2): Actions{1}
    Action (203,1): Fields[0]
  Event (obj_block,4): Actions{1}
    Action (203,1): Fields[0]
  Event (obj_glass,4): Actions{1}
    Action (203,1): Fields[0]
