Events{3}
  Event (0,0): Actions{1}
    Action (603,1): Code[6 lines]
{
image_speed=0.333;
alarm[0]=42-random(5);
speed=random(15)+8;
direction=random(360);
}
  Event (0,2): Actions{1}
    Action (203,1): Fields[0]
  Event (0,3): Actions{1}
    Action (603,1): Code[3 lines]
{
speed*=0.9;
}
