Events{3}
  Event (0,0): Actions{1}
    Action (603,1): Code[1 lines]
alarm[0]=random(10)+20;
  Event (0,2): Actions{1}
    Action (603,1): Code[2 lines]
visible=1;
alarm[1]=4;
  Event (1,2): Actions{1}
    Action (603,1): Code[2 lines]
visible=0;
alarm[0]=random(10)+20;
