Events{8}
  Event (0,0): Actions{1}
    Action (603,1): Code[3 lines]
image_speed=0.5;
alarm[0]=1;
obj_sabot.raveflash=0;
  Event (0,2): Actions{1}
    Action (603,1): Code[10 lines]
if (!wakeless){
alarm[0]=5;
if (direction==180){
    tempid=instance_create(x-(speed+10),y,obj_mpfbwake);
    tempid.speed=-10;
    tempid.image_index=4;
    }
else
    (instance_create(x+(speed+10),y,obj_mpfbwake)).speed=10;
}
  Event (0,3): Actions{1}
    Action (603,1): Code[5 lines]
if ((speed=global.mpfbspeed || global.sector==15) && !global.specialbake)
scr_mpfbspark();
scr_outside();
if (global.sector==15 && (x<200 || y<0 || x>1700 || y>1000))
    instance_destroy();
  Event (obj_block,4): Actions{1}
    Action (601,1): Fields[6]
      scr_mpfbhit
      0
      0
      0
      0
      0
  Event (obj_glass,4): Actions{1}
    Action (601,1): Fields[6]
      scr_mpfbhit
      0
      1
      0
      0
      0
  Event (obj_meta,4): Actions{1}
    Action (601,1): Fields[6]
      scr_mpfbhit
      0
      0
      0
      0
      0
  Event (obj_turret,4): Actions{1}
    Action (603,1): Code[4 lines]
{
if (other.visible)
script_execute(scr_mpfbhit);
}
  Event (obj_alliedenemy,4): Actions{1}
    Action (603,1): Code[5 lines]
if (other.enemytype!=12)
    scr_mpfbhit();
else
    instance_create(other.bbox_left+((other.bbox_right-other.bbox_left)/2), other.bbox_top+((other.bbox_bottom-other.bbox_top)/2), obj_enemyreflector);

