Events{3}
  Event (0,8): Actions{1}
    Action (603,1): Code[33 lines]
for (i=0; i<13; i+=1){
for (j=0; j<10; j+=1){
draw_sprite(spr_mainfullcover,0,i*64,j*64);
}
}
for (i=0; i<98; i+=1){
draw_sprite(spr_mainfullcover2,1,(i*8)+8,0);
draw_sprite(spr_mainfullcover2,1,(i*8)+8,592);
}
for (i=0; i<73; i+=1){
draw_sprite(spr_mainfullcover2,0,0,(i*8)+8);
draw_sprite(spr_mainfullcover2,0,792,(i*8)+8);
}
draw_sprite(spr_mainfullcover2,2,0,0);
draw_sprite(spr_mainfullcover2,3,792,0);
draw_sprite(spr_mainfullcover2,4,0,592);
draw_sprite(spr_mainfullcover2,5,792,592);

draw_text_sprite(22,20,obj_face.screentext,28,756,spr_text_white,32,1);

//Enemy info
if (obj_face.tier="wait2" && obj_face.selected==3){
if (obj_face.enemyinfo<=13)
    draw_sprite(spr_mainfullenemies,obj_face.enemyinfo-1,672,0);
else
    draw_sprite(spr_mainfullenemies2,obj_face.enemyinfo-14,672,0);
draw_sprite(spr_mainarrows,0,622,0);
}
//Weapon info
if (obj_face.tier="wait2" && obj_face.selected==2){
draw_sprite(spr_mainfullweapons,obj_face.weaponinfo-1,672,0);
draw_sprite(spr_mainarrows,0,622,0);
}
  Event (37,9): Actions{1}
    Action (603,1): Code[18 lines]
if (obj_face.tier="wait2" && obj_face.selected==2){
if (obj_face.weaponinfo==1)
    obj_face.weaponinfo=18;
else
    obj_face.weaponinfo-=1;
scr_sound("glo_menumove");
with (obj_face)
    scr_menufulltexts();
}
if (obj_face.tier="wait2" && obj_face.selected==3){
if (obj_face.enemyinfo==1)
    obj_face.enemyinfo=25;
else
    obj_face.enemyinfo-=1;
scr_sound("glo_menumove");
with (obj_face)
    scr_menufulltexts();
}
  Event (39,9): Actions{1}
    Action (603,1): Code[18 lines]
if (obj_face.tier="wait2" && obj_face.selected==2){
if (obj_face.weaponinfo==18)
    obj_face.weaponinfo=1;
else
    obj_face.weaponinfo+=1;
scr_sound("glo_menumove");
with (obj_face)
    scr_menufulltexts();
}
if (obj_face.tier="wait2" && obj_face.selected==3){
if (obj_face.enemyinfo==25)
    obj_face.enemyinfo=1;
else
    obj_face.enemyinfo+=1;
scr_sound("glo_menumove");
with (obj_face)
    scr_menufulltexts();
}
