Events{2}
  Event (0,2): Actions{1}
    Action (603,1): Code[1 lines]
instance_destroy();
  Event (0,8): Actions{1}
    Action (603,1): Code[6 lines]
{
brush_color=c_white;
pen_color=c_white;
brush_style=bs_solid;
draw_rectangle(view_left-20,view_top-20,view_left+view_width+20,view_top+view_height+20);
}
