Events{21}
  Event (0,0): Actions{1}
    Action (603,1): Code[21 lines]
hp=1;
armor=400;
maxarmor=400;
if (global.suddendeath){
    armor=100;
    maxarmor=100;
    }
security=25;
resistance=1;
xstepmax=5;
ystepmax=5;
xdir=floor(random(2));
ydir=floor(random(2));
facing=floor(random(2));
image_single=facing;
fstepmax=30;
enemytype=15;
alarm[0]=5;
alarm[1]=1;
xorigin=x;
yorigin=y;
  Event (0,2): Actions{1}
    Action (603,1): Code[8 lines]
alarm[0]=5;
if (image_single==0)
    (instance_create(x+random(32),y-8+random(16),obj_bigsmoke)).depth=1;
if (image_single==1)
    (instance_create(x-32+random(32),y-8+random(16),obj_bigsmoke)).depth=1;
if (image_single==2)
    (instance_create(x-16+random(32),y-8+random(16),obj_bigsmoke)).depth=1;

  Event (1,2): Actions{1}
    Action (603,1): Code[5 lines]
if (tor){
    angry=1;
    xorigin=x-256;
    yorigin=y;
    }
  Event (2,2): Actions{1}
    Action (603,1): Code[1 lines]
instance_destroy();
  Event (5,2): Actions{1}
    Action (603,1): Code[6 lines]
if (!tor){
    angry=0;
    sstep=0;
    fstep=0;
    scr_sound("tur_lose");
    }
  Event (0,3): Actions{1}
    Action (603,1): Code[213 lines]
thored=0;
cfised=0;

if (angryprev==0 && angry==1 && !tor)
    scr_sound("tur_find");
angryprev=angry;

//Lose sight
if ((x < obj_shakescreen.x-1000) || (x > obj_shakescreen.x+1000) || (y < obj_shakescreen.y-800) || (y > obj_shakescreen.y+800)){
    angry=0;
    alarm[5]=0;
    sstep=0;
    fstep=0;
    }

//Goto angry
if (angry && !angry2 && fstep<fstepmax-6)
    fstep=fstepmax-6;
angry2=angry;

//Armor
if (armor<399.9)
    armor+=0.1;

//Roam
if (!angry){
//Face
fstep+=1;
if (fstep>fstepmax){
fstep=0;
fstepmax=60+random(60);
tempface=facing;
facing=floor(random(2));
if (tempface!=facing){
    turn=1;
    image_single=2;
    }
}
if (turn==1)
    tstep+=1;
if (tstep>=8){
    tstep=0;
    turn=0;
    image_single=facing;
    }
//Move
xstep+=1;
if (xstep>=xstepmax){
    xstep=0;
    xdir=floor(random(2));
    xstepmax=20+floor(random(40));
    }
if (xdir==0)
    hspeed-=0.1;
if (xdir==1)
    hspeed+=0.1;
if (hspeed<-1.2)
    hspeed=-1.2;
if (hspeed>1.2)
    hspeed=1.2;
if (x<xorigin-32)
    xdir=1;
if (x>xorigin+32)
    xdir=0;

ystep+=1;
if (ystep>=ystepmax){
    ystep=0;
    ydir=floor(random(2));
    ystepmax=20+floor(random(20));
    }
if (ydir==0)
    vspeed-=0.1;
if (ydir==1)
    vspeed+=0.1;
if (vspeed<-3)
    vspeed=-3;
if (vspeed>3)
    vspeed=3;
if (y<yorigin-128 && !flyaway)
    ydir=1;
if (y>yorigin+128)
    ydir=0;
if (!place_free(x,y-32)){
    ydir=1;
    vspeed+=0.2;
    }
if (!place_free(x,y+32)){
    ydir=0;
    vspeed-=0.2;
    }
}

//Angry
if (angry){
//Fire
if (sstep<100)
sstep+=1;
if (sstep>=60 && (abs(y-obj_iji.y-30)<6) && !place_meeting(x,y,obj_tor) && obj_iji.sprite_index!=spr_getup && obj_iji.sprite_index!=spr_getupleft){
    if (x>obj_iji.x+6 && image_single==0){
        scr_sound("wea_shoc");
        tempid=instance_create(x-32,y,obj_enemyshock);
        tempid.hspeed=-global.shockspeed;
        tempid.floorable=1;
        instance_create(x-32,y,obj_shockspark);
        sstep=0;
        }
    if (x<=obj_iji.x+6 && image_single==1){
        scr_sound("wea_shoc");
        tempid=instance_create(x+32,y,obj_enemyshock);
        tempid.hspeed=global.shockspeed;
        tempid.floorable=1;
        instance_create(x+32,y,obj_shockspark);
        sstep=0;
        }
    }
//Face
fstep+=1;
if (fstep>fstepmax){
fstep=0;
fstepmax=8;
tempface=facing;
if (x>obj_iji.x+6)
    facing=0;
else
    facing=1;
if (tempface!=facing){
    turn=1;
    image_single=2;
    }
}
if (turn==1)
    tstep+=1;
if (tstep>=8){
    fstep=0;
    tstep=0;
    turn=0;
    image_single=facing;
    }
//Move
xstep+=1;
if (xstep>=xstepmax){
    xstep=0;
    xdir=floor(random(2));
    xstepmax=10+floor(random(10));
    }
if (xdir==0)
    hspeed-=0.5;
if (xdir==1)
    hspeed+=0.5;
if (hspeed<-5)
    hspeed=-5;
if (hspeed>5)
    hspeed=5;
if (x<xorigin-64)
    xdir=1;
if (x>xorigin+64)
    xdir=0;

ystep+=1;
if (ystep>=ystepmax){
    ystep=0;
    ydir=floor(random(2));
    ystepmax=10+floor(random(10));
    if (y>obj_iji.y+30 || flyaway==1)
        ydir=0;
    else
        ydir=1;
    }
if (ydir==0)
    vspeed-=1;
if (ydir==1)
    vspeed+=1;
if (vspeed<-5)
    vspeed=-5;
if (vspeed>5)
    vspeed=5;
if (y<yorigin-256 && !flyaway)
    ydir=1;
if (y>yorigin+256)
    ydir=0;
if (!place_free(x,y-16)){
    ydir=1;
    vspeed+=1;
    }
if (!place_free(x,y+16)){
    ydir=0;
    vspeed-=1;
    }
}

//Death
if (armor<=0){
    scr_sound("exp_turret");
    scr_shakescreen(2);
    instance_create(x,y,obj_enemyrocketexplosion);
    instance_create(x,y,obj_explosioncenter);
    if (!tor)
        scr_dropammo(0,0,3,9);
    if (global.specialbake==0)
        maximum=20;
    else
        maximum=100;
    if (instance_number(obj_scrapwhite)<maximum){
        repeat(20){
            tempid=instance_create(x,y,obj_scrapwhite);
            tempid.speed=random(10)+10;
            tempid.direction=random(360);
            tempid.alarm[2]=4;
            }
        }
    instance_destroy();
    }
  Event (obj_bullet,4): Actions{1}
    Action (603,1): Code[9 lines]
scr_smasherwake();
armor+=-(10*(1+(global.attacklevel/10)));
instance_create(other.x-3+random(7),other.y-3+random(7),obj_smoke);
with (other){
    x+=(3-random(6));
    y+=(3-random(6));
    instance_create(x,y,obj_bullethit);
    instance_destroy();
    }
  Event (obj_pellet,4): Actions{1}
    Action (603,1): Code[9 lines]
scr_smasherwake();
armor+=-(9*(1+(global.attacklevel/10)));
instance_create(other.x-3+random(7),other.y-3+random(7),obj_smoke);
with (other){
    x+=(3-random(6));
    y+=(3-random(6));
    instance_create(x,y,obj_bullethit);
    instance_destroy();
    }
  Event (obj_kickbox,4): Actions{1}
    Action (603,1): Code[10 lines]
if (other.image_index==0){
scr_sound("glo_kick");
repeat(20){
tempid=instance_create(x,y,obj_scrapwhite);
tempid.speed=random(6)+6;
tempid.direction=random(360);
}
scr_shakescreen(2);
instance_destroy();
}
  Event (obj_rocketexplosion,4): Actions{1}
    Action (603,1): Code[2 lines]
if (other.dud==0)
armor=-100;
  Event (obj_mpfbexplosion,4): Actions{1}
    Action (603,1): Code[2 lines]
if (other.dud==0)
armor=-100;
  Event (obj_pulse,4): Actions{1}
    Action (603,1): Code[10 lines]
scr_smasherwake();
if (other.hyper_==1 && armor<maxarmor/3 && global.strengthlevel>=resistance){
    scr_sound("glo_kick");
    armor=-100;
    }
with (other){
    scr_pulseexplosion();
    instance_destroy();
    }
armor+=-(2*(1+(global.attacklevel/10)));
  Event (obj_enemyrocketexplosion,4): Actions{1}
    Action (603,1): Code[4 lines]
if (!tor || other.killsky){
    if (other.dud==0)
        armor=-100;
    }
  Event (obj_shockexplosion,4): Actions{1}
    Action (603,1): Code[2 lines]
if (other.dud==0)
armor=-100;
  Event (obj_shockballexplosion,4): Actions{1}
    Action (603,1): Code[4 lines]
if (other.dud==0){
    scr_smasherwake();
    armor+=-(30*(1+(global.attacklevel/10)));
    }
  Event (obj_enemympfbexplosion,4): Actions{1}
    Action (603,1): Code[4 lines]
if (!tor || other.killsky){
    if (other.dud==0)
        armor=-100;
    }
  Event (obj_pushbox,4): Actions{1}
    Action (603,1): Code[5 lines]
global.erasetop=0;
global.topmessage="You need a Crack skill of "+string(security)+" to crack a Komato Skysmasher";
scr_sound("glo_crackfail");
global.ignorestation=90;

  Event (obj_thor,4): Actions{1}
    Action (603,1): Code[5 lines]
if (thored==0){
    scr_smasherwake();
    armor+=-(35*(1+(global.attacklevel/10)));
    thored=1;
    }
  Event (obj_turret,4): Actions{1}
    Action (603,1): Code[2 lines]
if (other.speed>6)
    armor=-100;
  Event (obj_enemyshockballexplosion,4): Actions{1}
    Action (603,1): Code[2 lines]
if (other.dud==0)
    armor+=-(30*(1+(global.attacklevel/10)));
  Event (obj_enemyshockexplosion,4): Actions{1}
    Action (603,1): Code[2 lines]
if (other.dud==0)
    armor=-100;
