Events{3}
  Event (0,0): Actions{1}
    Action (603,1): Code[3 lines]
alarm[0]=4;
alarm[1]=1;

  Event (0,2): Actions{1}
    Action (203,1): Fields[0]
  Event (1,2): Actions{1}
    Action (603,1): Code[2 lines]
visible=1;
image_index=0;
