Events{9}
  Event (0,0): Actions{1}
    Action (603,1): Code[12 lines]
enemytype=20;
resistance=1;
security=global.cracklevel-2+global.difficulty;
if (security<1)
    security=1;
iosa=1;
with (obj_chat)
    instance_destroy();
state=6;
vspeed=-6;
gravity=1;
instance_create(obj_iji.x,obj_iji.y,obj_iosa2safe);
  Event (0,2): Actions{1}
    Action (603,1): Code[1 lines]
scr_sound("io2_death");
  Event (0,3): Actions{1}
    Action (603,1): Code[408 lines]
//"WIN"
if (obj_sabot.gameover && !winquote){
    winquote=1;
    win=30;
    }
if (win>0)
    win-=1;
if (win==1)
    scr_sound("io2_win");

//Stand
if (state==0){
    if (global.hp>0){
        standcyc+=1;
        //take action
        if ((standcyc>=75 && global.strengthlevel!=10) || (standcyc>=105 && global.strengthlevel=10) || (obj_iji.takingpain==0 && obj_iji.recovering==0)){
            standcyc=0;
            //close range overdrive walk now
            if (obj_iji.x>1472){
                 charged=1;
                state=1;
                image_speed=0.5;
                sprite_index=spr_iosa2_walk;
                }
            else{
                temprand=random(1);
                //spinattack now
                if (temprand<0.3){
                    scr_sound("io2_jump");
                    state=12;
                    image_speed=-1;
                    image_index=0;
                    sprite_index=spr_iosa2_spin;
                    gravity=1;
                    vspeed=(floor(((obj_iji.x-x)/32)/1.5)+2);
                    if (vspeed>-2)
                        vspeed=-2;
                    }
                //walk now
                else{
                    temprand=random(1);
                    if (temprand>0.8-0.2*global.difficulty)
                        charged=1;
                    state=1;
                    image_speed=0.5;
                    sprite_index=spr_iosa2_walk;
                    }
                }
            }
        }
    }

//Walk
if (state==1){
    if (charged){
        x-=12+global.difficulty*2;
        repeat(4){
            tempid=instance_create(x+random(50),y+random(60),obj_thorspark);
            tempid.speed=random(3.5)-1.5;
            tempid.direction=90;
            tempid.gravity=0.2;
            }
        }
    else
        x-=16;
    if (place_meeting(x-40,obj_iji.y,obj_iji) || x<784 || x<obj_iji.x){
        //overdrive now
        if (charged && (obj_iji.x<=1504 || obj_iji.y>=y-10)){
            overdrivecyc=0;
            charged=0;
            state=5;
            visible=0;
            instance_create(x,y,obj_iosa2overdrive);
            }
        //swipe now
        else if (obj_iji.y>y-10 && x>obj_iji.x){
            scr_sound("io2_melee");
            scr_sound("glo_swipe");
            state=2;
            sprite_index=spr_iosa2_swipe;
            image_speed=1;
            image_index=0;
            }
        //uppercut now
        else{
            scr_sound("io2_melee2");
            scr_sound("glo_swipe");
            uppercutcyc=0;
            state=4;
            sprite_index=spr_iosa2_uppercut;
            image_single=0;
            }
        }
    }

//Swipe
else if (state==2){
    swipecyc+=1;
    if (swipecyc==2){
        scr_sound("glo_swipe");
        instance_create(x,y,obj_iosa2_swipebox);
        }
    //swipe2 now
    if (swipecyc>3){
        swipecyc=0;
        state=3;
        sprite_index=spr_iosa2_swipe2;
        image_speed=0.5;
        image_index=0;
        swipe2cyc=0;
        }
    }

//Swipe2 (waiting for uppercut)
else if (state==3){
    swipe2cyc+=1;
    if (swipe2cyc>=44-global.difficulty*11 || place_meeting(x,y,obj_iji)){
        if (obj_iji.takingpain==0){
            //uppercut now
            if (abs(obj_iji.x-x)<100){
                scr_sound("io2_melee2");
                scr_sound("glo_swipe");
                swipe2cyc=0;
                uppercutcyc=0;
                state=4;
                sprite_index=spr_iosa2_uppercut;
                image_single=0;
                }
            //spin now, iji was too far away
            else{
                state=6;
                swipe2cyc=0;
                image_speed=1;
                image_index=0;
                sprite_index=spr_iosa2_spin;
                gravity=1;
                vspeed=-(floor(((1568-x)/32)/2)+3);
                if (vspeed>-6)
                    vspeed=-6;
                }
            }
        //spin now
        else{
            state=6;
            swipe2cyc=0;
            image_speed=1;
            image_index=0;
            sprite_index=spr_iosa2_spin;
            gravity=1;
            vspeed=-(floor(((1568-x)/32)/2)+3);
            if (vspeed>-6)
                vspeed=-6;
            }
        }
    }

//Uppercut
else if (state==4){
    uppercutcyc+=1;
    if (uppercutcyc==1){
        image_single+=1;
        y-=16;}
    if (uppercutcyc==2){
        y-=26;}
    if (uppercutcyc==3){
        image_single+=1;
        y-=120;
        instance_create(x,y,obj_iosa2slash);}
    if (uppercutcyc==4){
        with (obj_iosa2slash)
            instance_destroy();
        y-=40;
        instance_create(x,y,obj_iosa2slash);}
    if (uppercutcyc==5){
        image_single+=1;
        with (obj_iosa2slash)
            instance_destroy();
        y-=20;}
    if (uppercutcyc==6){
        y-=14;}
    if (uppercutcyc==7){
        image_single+=1;
        y-=10;}
    if (uppercutcyc==8){
        y-=8;}
    if (uppercutcyc==9){
        image_single+=1;
        y-=5;}
    if (uppercutcyc==10){
        y-=3;}
    if (uppercutcyc==11){
        image_single+=1;
        y-=2;}
    if (uppercutcyc==12){
        y-=1;}
    if (uppercutcyc==13){
        image_single=-1;
        image_speed=0.5;
        image_index=7;
        y-=2;
        gravity=1;}
    if (vspeed>22)
        vspeed=22;
    if (image_index>13)
        image_index=12;
    //spin now
    if (!place_free(x,y+vspeed) && y>650){
        state=6;
        uppercutcyc=0;
        move_contact_solid(270,100);
        image_single=-1;
        image_speed=1;
        image_index=0;
        sprite_index=spr_iosa2_spin;
        gravity=1;
        vspeed=-(floor(((1568-x)/32)/2)+3);
        if (vspeed>-6)
            vspeed=-6;
        }
    }

//Overdrive
else if (state==5){
    overdrivecyc+=1;
    repeat(5){
        tempid=instance_create(x-20+random(90),y+60+random(12),obj_iosastrikesmoke2);
        tempid.speed=(tempid.x-x-25)/3;
        }
    //uppercut or spin now
    if (overdrivecyc>=37){
        if (abs(x-obj_iji.x)<128 && obj_iji.y>704){
            scr_sound("io2_melee2");
            scr_sound("glo_swipe");
            uppercutcyc=0;
            state=4;
            sprite_index=spr_iosa2_uppercut;
            image_single=0;
            }
        else{
            state=6;
            image_speed=1;
            image_index=0;
            sprite_index=spr_iosa2_spin;
            gravity=1;
            vspeed=-(floor(((1568-x)/32)/2)+3);
            if (vspeed>-6)
                vspeed=-6;
            }
        overdrivecyc=0;
        visible=1;
        with (obj_iosa2overdrive)
            instance_destroy();
        }
    }

//Spin
else if (state==6){
    if (x<1568)
        x+=32;
    //take action
    if (vspeed>0 && !place_free(x,y+vspeed)){
        move_contact_solid(270,100);
        gravity=0;
        vspeed=0;
        if (global.hp=0 || obj_iji.takingpain){
            state=0;
            image_speed=0.5;
            standcyc=0;
            sprite_index=spr_iosa2_basic;
            }
        else{
            //close range overdrive walk now
            if (obj_iji.x>1504){
                charged=1;
                state=1;
                image_speed=0.5;
                sprite_index=spr_iosa2_walk;
                }
            else{
                temprand=random(1);
                //spinattack now
                if (temprand<0.3){
                    scr_sound("io2_jump");
                    state=12;
                    image_speed=-1;
                    image_index=0;
                    sprite_index=spr_iosa2_spin;
                    gravity=1;
                    vspeed=(floor(((obj_iji.x-x)/32)/1.5)+2);
                    if (vspeed>-2)
                        vspeed=-2;
                    }
                //walk now
                else{
                    temprand=random(1);
                    if (temprand>0.8-0.2*global.difficulty)
                        charged=1;
                    state=1;
                    image_speed=0.5;
                    sprite_index=spr_iosa2_walk;
                    }
                }
            }
        }
    }

//Stagger
if (state==7){
    staggercyc+=1;
    if (place_free(x+6,y))
        x+=6;
    //hitwall now
    if (!place_free(x+6,y)){
        scr_sound("glo_land");
        guard=0;
        state=9;
        staggercyc=0;
        hitwallcyc=0;
        sprite_index=spr_iosa2_hitwall;
        image_index=0;
        scr_shakescreen(2);
        }
    //stagger2 now
    else if (staggercyc>=12){
        state=8;
        staggercyc=0;
        stagger2cyc=0;
        sprite_index=spr_iosa2_stagger2;
        guard2=12-guard-global.difficulty*3;
        if (guard2>0){
            for (i=0;i<(guard2);i+=1)
                (instance_create(x-8,y-12,obj_iosa2dizzy)).cyc=(i/guard2)*360;
            }
        }
    }

//Stagger2
if (state==8){
    stagger2cyc+=1;
    //spin now
    if (stagger2cyc>=60-(global.difficulty*15) || guard>=12-(global.difficulty*3)){
        with (obj_iosa2dizzy)
            instance_destroy();
        guard=0;
        stagger2cyc=0;
        state=6;
        image_speed=1;
        image_index=0;
        sprite_index=spr_iosa2_spin;
        gravity=1;
        vspeed=-(floor(((1568-x)/32)/2)+3);
        if (vspeed>-6)
            vspeed=-6;
        }
    }

//Hitwall
if (state==9){
    hitwallcyc+=1;
    //woozy now
    if (hitwallcyc>=14){
        state=10;
        hitwallcyc=0;
        woozycyc=0;
        sprite_index=spr_iosa2_woozy;
        }
    }

//Woozy
if (state==10){
    woozycyc+=1;
    //uppercut now
    if (woozycyc>=300){
        woozycyc=0;
        uppercutcyc=0;
        state=4;
        sprite_index=spr_iosa2_uppercut;
        image_single=0;
        }
    }

//Death
if (state==11){
    if (deathcyc<10)
        deathcyc+=1;
    if (deathcyc==2)
        image_single=1;
    if (deathcyc==4)
        image_single=2;
    }

//Spinattack
if (state==12){
    if (x>704)
        x-=24;
    //uppercut now
    if (vspeed>0 && !place_free(x,y+vspeed)){
        scr_sound("io2_melee2");
        scr_sound("glo_swipe");
        move_contact_solid(270,100);
        gravity=0;
        vspeed=0;
        uppercutcyc=0;
        state=4;
        sprite_index=spr_iosa2_uppercut;
        image_single=0;
        }
    }
  Event (2,3): Actions{1}
    Action (603,1): Code[3 lines]
//Fix
if (state!=4 && !place_free(x,y))
    y-=1;
  Event (obj_bullet,4): Actions{1}
    Action (603,1): Code[6 lines]
with (other){
    x+=(3-random(6));
    y+=(3-random(6));
    instance_create(x,y,obj_bullethit);
    instance_destroy();
    }
  Event (obj_pellet,4): Actions{1}
    Action (603,1): Code[6 lines]
with (other){
    x+=(3-random(6));
    y+=(3-random(6));
    instance_create(x,y,obj_bullethit);
    instance_destroy();
    }
  Event (obj_kickbox,4): Actions{1}
    Action (603,1): Code[60 lines]
if (other.image_index==0 && (other.sprite_index=spr_detonator || global.facing==1)){
//spin now
if (state==0 || state==1 || state==2 || state==4){
    state=6;
    standcyc=0;
    swipecyc=0;
    uppercutcyc=0;
    image_single=-1;
    image_speed=1;
    image_index=0;
    sprite_index=spr_iosa2_spin;
    gravity=1;
    vspeed=-(floor(((1568-x)/32)/2)+3);
    if (vspeed>-6)
        vspeed=-6;
    }
else if (state==3 || state==8 || state==9 || state==10){
    //stagger now
    if (place_free(x+6,y)){
        with (obj_iosa2dizzy)
            instance_destroy();
        scr_sound("glo_kick");
        guard+=1;
        state=7;
        sprite_index=spr_iosa2_stagger;
        image_single=-1;
        image_index=0;
        image_speed=0.5;
        swipe2cyc=0;
        staggercyc=0;
        stagger2cyc=0;
        woozycyc=0;
        scr_shakescreen(2);
        temprand=random(1);
        if (temprand<0.3)
            scr_sound("io2_kicked");
        }
    //hitwall now
    else{
        scr_sound("glo_kick");
        scr_sound("glo_land");
        state=9;
        sprite_index=spr_iosa2_hitwall;
        image_single=-1;
        image_index=0;
        image_speed=0.5;
        swipe2cyc=0;
        staggercyc=0;
        stagger2cyc=0;
        hitwallcyc=0;
        woozycyc=0;
        scr_shakescreen(2);
        global.erasetop=0;
        global.topmessage="SUBJECT IS DAZED, PRESS "+chr(global.usekey)+" TO CRACK IT";
        temprand=random(1);
        if (temprand<0.3)
            scr_sound("io2_kicked");
        }
    }
}
  Event (obj_pulse,4): Actions{1}
    Action (603,1): Code[4 lines]
with (other){
    scr_pulseexplosion();
    instance_destroy();
    }
  Event (obj_pushbox,4): Actions{1}
    Action (603,1): Code[16 lines]
if (state!=10 && state!=9){
    global.erasetop=0;
    global.topmessage="Subject is too alert to crack now";
    }
else if (global.facing==1){
    //crack iosa2
    global.security=security;
    crackmark=1;
    global.cracktext="Iosa Sakera        H1 A<OVERFLOW> W1  Security: ";
    global.cracktext+=string(global.security);
    if (global.security==10)
        global.cracktext+="      PUSH "+chr(global.usekey)+" TO BEGIN"
    else
        global.cracktext+="       PUSH "+chr(global.usekey)+" TO BEGIN"
    script_execute(scr_begincrack);
    }
