Events{25}
  Event (0,0): Actions{1}
    Action (603,1): Code[19 lines]
lastx=x;
lasty=y;
hp=10;
maxhp=10;
armor=200;
maxarmor=200;
if (global.suddendeath){
    hp=1;
    maxhp=1;
    armor=100;
    maxarmor=100;
    }
enemytype=12;
resistance=1;
security=20;
asha=1;
asha2=1;
smashx=6048;
smashy=3040;
  Event (0,2): Actions{1}
    Action (603,1): Code[35 lines]
if (hp>0){
//Uppercut, Backstab, Upslash
if (sprite_index==spr_asha_uppercut || sprite_index==spr_asha_uppercutleft || sprite_index==spr_asha_backstab || sprite_index==spr_asha_backstableft || sprite_index==spr_asha_upslash){
    image_single=-1;
    image_speed=1;
    image_index=1;
    scr_sound("glo_swipe");
    }

//Firing in pose1
if (sprite_index==spr_asha_pose1 || sprite_index==spr_asha_pose1left){
scr_sound("wea_plas");
scr_shakescreen(3);
shotcount+=1;
if (sprite_index==spr_asha_pose1){
    tempid=instance_create(x+49,y+10,obj_enemyplasmatrace);
    with (tempid)
        scr_enemyplasmatrace(1);
    }
else{
    tempid=instance_create(x-24,y+10,obj_enemyplasmatrace);
    with (tempid)
        scr_enemyplasmatrace(0);
    }

if (sprite_index==spr_asha_pose1)
    sprite_index=spr_asha_pose1fire;
else
    sprite_index=spr_asha_pose1fireleft;
if (shotcount!=5){
    alarm[3]=5;
    alarm[0]=8;
    }
}
}
  Event (1,2): Actions{1}
    Action (603,1): Code[26 lines]
if (hp>0){
//Visibility time is up
if (sprite_index==spr_asha_pose2){
    scr_sound("wea_plas");
    scr_shakescreen(3);
    tempid=instance_create(x+29,y+42,obj_enemyplasmatrace);
    with(tempid)
        scr_enemyplasmatrace(1);
    }
if (sprite_index==spr_asha_pose2left){
    scr_sound("wea_plas");
    scr_shakescreen(3);
    tempid=instance_create(x+4,y+42,obj_enemyplasmatrace);
    with(tempid)
        scr_enemyplasmatrace(0);
    }

alarm[2]=2;
//alarm[2]=random(15-(global.difficulty*5))+20-(global.difficulty*5);
instance_create(bbox_left+((bbox_right-bbox_left)/2), bbox_top+((bbox_bottom-bbox_top)/2), obj_megaflash);
visible=0;
image_single=0;
image_index=0;
sprite_index=spr_asha_basic;

}
  Event (2,2): Actions{1}
    Action (603,1): Code[373 lines]
//Recieve orders, appear and execute
if (global.hp>0 && hp>0){

upslashing=0;
upslashwait=0;
image_index=0;
image_single=0;
perform=0;
fakeperform=0;
rageperform=0;
performsmash=0;
randomfakes=0;
plasmavortex=0;

repeat(10){

if (!perform){
x=obj_sabot.x;
y=obj_sabot.y;
sprite_index=spr_asha_basic;
randomstate=floor(random(9));
if (hp<=3) //add smash chance
    randomstate=floor(random(10));
temprand=0;

//Plasma rage
randomsuper=random(1);
if (randomsuper>0.95 && supercool==0){
    scr_sound("ash_ambient");
    supercool=1;
    alarm[7]=600;
    rageperform=0;
    perform=1;
    fakeperform=1;
    randomstate=100;
    alarm[2]=0;
    //do Plasma vortex instead here
    vortexrand=random(1);
    if (vortexrand<0.5){ //VORTEX chance
        plasmavortex=1;
        vortexcyc=0;
        sprite_index=spr_asha_vortex;
        image_single=0;
        hspeed=0;
        vspeed=-6+global.difficulty;
        gravity=0.2;
        y=2912;
        x=6016+random(320);
        //x=5984+random(384);
        instance_create(x,y,obj_megaflash);
        visible=1;
        exit;
        }
    else{
        alarm[5]=2;
        plasmarage=10;
        exit;
        }
    }

//Five-shot in front of Iji
if (randomstate==0){
temprand=random(150)+100;
if (global.facing==0){
    sprite_index=spr_asha_pose1;
    if (place_free(obj_iji.x-temprand,obj_iji.y-20)){
        x=obj_iji.x-temprand;
        y=obj_iji.y-20;
        perform=1;
        }
    }
else if (global.facing==1){
    sprite_index=spr_asha_pose1left;
    if (place_free(obj_iji.x+temprand,obj_iji.y-20)){
        x=obj_iji.x+temprand;
        y=obj_iji.y-20;
        perform=1;
        }
    }
if (perform){
    move_contact_solid(270,64);
    if (place_free(x,y) && !place_free(x,y+1) && !collision_line(x,y,obj_iji.x,obj_iji.y,obj_block,0,1)){
        alarm[1]=65-(global.difficulty*5);
        alarm[0]=30-(global.difficulty*5);
        shotcount=0;
        sound_frequency(snd_tor_gather,0.1);
        scr_sound("tor_gather");
        if (sprite_index==spr_asha_pose1)
            (instance_create(x+65,y+10,obj_chargetell)).tempid=id;
        if (sprite_index==spr_asha_pose1left)
            (instance_create(x-40,y+10,obj_chargetell)).tempid=id;
        if (hp<=4 || insane){
            temprand=random(1);
            if (temprand<0.3 && tauntwait==0){
                scr_sound("ash_ambient");
                tauntwait=300+ceil(random(200));
                }
            }
        }
    else
        perform=0;
    }
}

//Dual-shot behind Iji
if (randomstate==1){
temprand=random(150)+100;
if (global.facing==0){
    sprite_index=spr_asha_pose2left;
    if (place_free(obj_iji.x+temprand,obj_iji.y-20)){
        x=obj_iji.x+temprand;
        y=obj_iji.y-20;
        perform=1;
        }
    }
else if (global.facing==1){
    sprite_index=spr_asha_pose2;
    if (place_free(obj_iji.x-temprand,obj_iji.y-20)){
        x=obj_iji.x-temprand;
        y=obj_iji.y-20;
        perform=1;
        }
    }
if (perform){
    move_contact_solid(270,64);
    if (place_free(x,y) && !place_free(x,y+1) && !collision_line(x,y,obj_iji.x,obj_iji.y,obj_block,0,1)){
        alarm[1]=30-global.difficulty*5;
        sound_frequency(snd_tor_gather,0.1);
        scr_sound("tor_gather");
        if (sprite_index==spr_asha_pose2)
            (instance_create(x+45,y+42,obj_chargetell)).tempid=id;
        if (sprite_index==spr_asha_pose2left)
            (instance_create(x-12,y+42,obj_chargetell)).tempid=id;
        if (hp<=4 || insane){
            temprand=random(1);
            if (temprand<0.3 && tauntwait==0){
                scr_sound("ash_ambient");
                tauntwait=300+ceil(random(200));
                }
            }
        }
    else
        perform=0;
    }
}

//Downstab
if (randomstate==2){
temprand=random(64)+256;
sprite_index=spr_asha_downstab;
if (place_free(obj_iji.x,obj_iji.y-temprand)){
    x=obj_iji.x;
    y=obj_iji.y-temprand;
    if (!collision_line(x,y,obj_iji.x,obj_iji.y,obj_block,0,1)){
        gravity=1;
        gravity_direction=270;
        perform=1;
        }
    else
        sprite_index=spr_asha_basic;
    }
}

//Uppercut
if (randomstate==3 && global.difficulty!=0){
temprand=random(1);
if (temprand>0.5){
    sprite_index=spr_asha_uppercut;
    if (place_free(obj_iji.x-50,obj_iji.y-20) && !place_free(obj_iji.x-50,obj_iji.y+64)){
        x=obj_iji.x-50;
        y=obj_iji.y-20;
        perform=1;
        }
    }
else{
    sprite_index=spr_asha_uppercutleft;
    if (place_free(obj_iji.x+32,obj_iji.y-20) && !place_free(obj_iji.x+32,obj_iji.y+64)){
        x=obj_iji.x+32;
        y=obj_iji.y-20;
        perform=1;
        }
    }
if (perform){
    move_contact_solid(270,64);
    if (place_free(x,y) && !place_free(x,y+1)){
        if (hp<=4 || insane){
            temprand=random(1);
            if (temprand<0.3 && tauntwait==0){
                scr_sound("ash_ambient");
                tauntwait=300+ceil(random(200));
                }
            }
        image_single=0;
        alarm[1]=39-(global.difficulty*5);
        alarm[0]=34-(global.difficulty*5);
        }
    else
        perform=0;
    }
}

//Backstab
if (randomstate==4){
    if (hp<4 && global.difficulty!=0)
        randomstate=5;
    else{
        if (global.facing==0){
            sprite_index=spr_asha_backstableft;
            if (place_free(obj_iji.x+50,obj_iji.y-30) && !place_free(obj_iji.x+32,obj_iji.y+32)){
                x=obj_iji.x+50;
                y=obj_iji.y-30;
                perform=1;
                }
            }
        else if (global.facing==1){
            sprite_index=spr_asha_backstab;
            if (place_free(obj_iji.x-50,obj_iji.y-30) && !place_free(obj_iji.x-50,obj_iji.y+32)){
                x=obj_iji.x-50;
                y=obj_iji.y-30;
                perform=1;
                }
            }
        if (perform){
            move_contact_solid(270,64);
            if (place_free(x,y) && !place_free(x,y+1)){
                image_single=0;
                alarm[1]=34-(global.difficulty*5);
                alarm[0]=30-(global.difficulty*5);
                if (hp<=4 || insane){
                    temprand=random(1);
                    if (temprand<0.3 && tauntwait==0){
                        scr_sound("ash_ambient");
                        tauntwait=300+ceil(random(200));
                        }
                    }
                }
            else
                perform=0;
            }
        }
    }

//Upslash
if (randomstate==5){
sprite_index=spr_asha_upslash;
x=obj_iji.x;
y=obj_iji.y;
if (place_free(x,y)){
    move_contact_solid(270,384);
    if (!place_free(x,y+1) && (y-obj_iji.y)>128 && obj_iji.vspeed<2){
        perform=1;
        image_single=0;
        if (hp<=4 || insane){
            temprand=random(1);
            if (temprand<0.3 && tauntwait==0){
                scr_sound("ash_ambient");
                tauntwait=300+ceil(random(200));
                }
            }
        }
    else{
        x=obj_sabot.x;
        y=obj_sabot.y;
        }
    }
}

/*
//Laser daggers
if (randomstate==6){
    x=random(800)+obj_iji.x-400;
    y=random(300)+obj_iji.y-300;
    if (place_free(x,y) && distance_to_object(obj_iji)>192 && !collision_line(x,y,obj_iji.x,obj_iji.y,obj_block,0,1)){
        perform=1;
        fakeperform=1;
        alarm[2]=random(15-(global.difficulty*5))+15-(global.difficulty*5);
        instance_create(bbox_left+((bbox_right-bbox_left)/2), bbox_top+((bbox_bottom-bbox_top)/2), obj_megaflash);
        if (x>obj_iji.x){
            tempid=instance_create(bbox_left+((bbox_right-bbox_left)/2), bbox_top+((bbox_bottom-bbox_top)/2), obj_laserdagger);
            tempid.direction=225;
            tempid=instance_create(bbox_left+((bbox_right-bbox_left)/2), bbox_top+((bbox_bottom-bbox_top)/2), obj_laserdagger);
            tempid.direction=180;
            tempid=instance_create(bbox_left+((bbox_right-bbox_left)/2), bbox_top+((bbox_bottom-bbox_top)/2), obj_laserdagger);
            tempid.direction=135;
            }
        else{
            tempid=instance_create(bbox_left+((bbox_right-bbox_left)/2), bbox_top+((bbox_bottom-bbox_top)/2), obj_laserdagger);
            tempid.direction=-45;
            tempid=instance_create(bbox_left+((bbox_right-bbox_left)/2), bbox_top+((bbox_bottom-bbox_top)/2), obj_laserdagger);
            tempid.direction=0;
            tempid=instance_create(bbox_left+((bbox_right-bbox_left)/2), bbox_top+((bbox_bottom-bbox_top)/2), obj_laserdagger);
            tempid.direction=45;
            }
        }
    }
*/

//Fake attack
if (randomstate==6){
    randomfakes=ceil(random(4))+4;
    elecbomb=0;
    alarm[4]=5;
    perform=1;
    fakeperform=1;
    if (laughcool==0 && hp>3){
        laughcool=300+ceil(random(300));
        scr_sound("ash_ambient2");
        }
    }

//Elecbombs
if (randomstate==7 && elecbombcool==0){
    elecbombcool=1;
    alarm[6]=300;
    randomfakes=5;
    elecbomb=1;
    alarm[4]=5;
    perform=1;
    fakeperform=1;
    if (laughcool==0 && hp>3){
        laughcool=300+ceil(random(300));
        scr_sound("ash_ambient2");
        }
    }

//Megasmash
if (randomstate>=8 && elecbombcool==0){
    scr_sound("ash_ambient");
    elecbombcool=1;
    performsmash=1;
    perform=1;
    sprite_index=spr_asha_smash;
    alarm[6]=300;
    x=6176;
    y=smashy-100;
    if (global.difficulty==0){
        gravity=0.25;
        vspeed=-8;
        y+=23;
        }    
    if (global.difficulty==1){
        gravity=0.25;
        vspeed=-6.5;
        y-=21;
        }
    if (global.difficulty==2){
        gravity=0.25;
        vspeed=-5;
        y-=55;
        }
    visible=1;
    image_single=0;
    scr_sound("glo_teleport");
    if (!donesmashonce || global.difficulty==0){
        donesmashonce=1;
        obj_asha2safe.visible=1;
        obj_asha2safe.sprite_index=spr_iosa2_safeu;
        }
    }

} //End of perform
} //End of repeat

//Perform
if (perform){
    if (!fakeperform && sprite_index!=spr_asha_basic){
        instance_create(bbox_left+((bbox_right-bbox_left)/2), bbox_top+((bbox_bottom-bbox_top)/2), obj_megaflash);
        visible=1;
        }
    }
else
    alarm[2]=2;
}
  Event (3,2): Actions{1}
    Action (603,1): Code[7 lines]
//Revert to pose1 animation
if (hp>0){
if (sprite_index==spr_asha_pose1fire)
    sprite_index=spr_asha_pose1;
else if (sprite_index==spr_asha_pose1fireleft)
    sprite_index=spr_asha_pose1left;
    }
  Event (4,2): Actions{1}
    Action (603,1): Code[17 lines]
if (randomfakes>0){
    if (elecbomb){
        xrand=6000+random(352);
        yrand=2816+random(96);
        instance_create(xrand,yrand,obj_elecbomb);
        instance_create(xrand,yrand,obj_megaflash);
        }
    else
        instance_create(random(600)+obj_iji.x-300,random(400)+obj_iji.y-200,obj_megaflash);
    randomfakes-=1;
    if (randomfakes==0)
        alarm[4]=2;
    else
        alarm[4]=3;
    }
else
    alarm[2]=2;
  Event (5,2): Actions{1}
    Action (603,1): Code[53 lines]
if (!rageperform && !plasmavortex){
    if (!donerageonce || global.difficulty==0){
        donerageonce=1;
        obj_asha2safe.visible=1;
        obj_asha2safe.sprite_index=spr_iosa2_safed;
        }
    rageperform=1;
    alarm[5]=50-(global.difficulty*10);
    image_index=0;
    image_speed=0.5;
    image_single=-1;
    if (obj_iji.x<6182){
       x=5888;
       sprite_index=spr_asha_wall;
       }
    else{
       x=6464;
       sprite_index=spr_asha_wallleft;
       }
    y=2780+random(60);
    visible=1;
    instance_create(bbox_left+((bbox_right-bbox_left)/2), bbox_top+((bbox_bottom-bbox_top)/2), obj_megaflash);
    }

else{
if (visible){
    instance_create(bbox_left+((bbox_right-bbox_left)/2), bbox_top+((bbox_bottom-bbox_top)/2), obj_megaflash);
    visible=0;
    image_single=0;
    image_index=0;
    sprite_index=spr_asha_basic;
    }
plasmarage-=1;
if (plasmarage>0){
    scr_sound("wea_plas");
    xrand=5904+random(544);
    yrand=3024-plasmarage*32;
    scr_shakescreen(3);
    instance_create(xrand,yrand,obj_megaflash);
    tempid=instance_create(xrand,yrand,obj_enemyplasmatrace);
    with (tempid){
        if (obj_asha2.xrand>6176)
            scr_enemyplasmatrace(0);
        else
            scr_enemyplasmatrace(1);
        }
    alarm[5]=2;
    }
else{
    alarm[2]=30-global.difficulty*10;
    obj_asha2safe.visible=0;
    }
}
  Event (6,2): Actions{1}
    Action (603,1): Code[1 lines]
elecbombcool=0;
  Event (7,2): Actions{1}
    Action (603,1): Code[1 lines]
supercool=0;
  Event (0,3): Actions{1}
    Action (603,1): Code[319 lines]
thored=0;
plasmaed=0;
cfised=0;

if (laughcool>0)
    laughcool-=1;
if (tauntwait>0)
    tauntwait-=1;

//"WIN"
if (obj_sabot.gameover && !winquote && hp>0){
    winquote=1;
    win=30;
    }
if (win>0)
    win-=1;
if (win==1)
    scr_sound("ash_win2");

//Plasma vortex
if (plasmavortex){
    if (vspeed>=0){
        vortexcyc+=1;
        gravity=0.1;
        }
    else{
        pvicyc+=1;
        if (pvicyc==2){
            pvicyc=0;
            if (image_single==0)
                image_single=1;
            else
                image_single=0;
            }
        }
    if (vortexcyc==2){
        (instance_create(x-54,y+8,obj_plasmavortex)).dir=7;
        scr_shakescreen(3);
        scr_sound("wea_plas");
        }
    if (vortexcyc==4){
        (instance_create(x-36,y+48,obj_plasmavortex)).dir=6;
        scr_shakescreen(3);
        scr_sound("wea_plas");
        }
    if (vortexcyc==6){
        (instance_create(x+8,y+62,obj_plasmavortex)).dir=5;
        scr_shakescreen(3);
        scr_sound("wea_plas");
        }
    if (vortexcyc==8){
        (instance_create(x+50,y+40,obj_plasmavortex)).dir=4;
        scr_shakescreen(3);
        scr_sound("wea_plas");
        }
    if (vortexcyc==10){
        (instance_create(x+74,y-12,obj_plasmavortex)).dir=3;
        scr_shakescreen(3);
        scr_sound("wea_plas");
        }
    if (vortexcyc==12){
        (instance_create(x+50,y-66,obj_plasmavortex)).dir=2;
        scr_shakescreen(3);
        scr_sound("wea_plas");
        }
    if (vortexcyc==14){
        (instance_create(x-10,y-80,obj_plasmavortex)).dir=1;
        scr_shakescreen(3);
        scr_sound("wea_plas");
        }
    if (vortexcyc==16){
        (instance_create(x-70,y-60,obj_plasmavortex)).dir=8;
        scr_shakescreen(3);
        scr_sound("wea_plas");
        }
    if (vortexcyc==18){
        (instance_create(x-84,y,obj_plasmavortex)).dir=7;
        scr_shakescreen(3);
        scr_sound("wea_plas");
        }
    if (vortexcyc==20){
        (instance_create(x-68,y+60,obj_plasmavortex)).dir=6;
        scr_shakescreen(3);
        scr_sound("wea_plas");
        }
    if (vortexcyc==22){
        (instance_create(x-4,y+84,obj_plasmavortex)).dir=5;
        scr_shakescreen(3);
        scr_sound("wea_plas");
        }
    if (vortexcyc==24){
        (instance_create(x+60,y+60,obj_plasmavortex)).dir=4;
        scr_shakescreen(3);
        scr_sound("wea_plas");
        }
    if (vortexcyc==26){
        (instance_create(x+80,y,obj_plasmavortex)).dir=3;
        scr_shakescreen(3);
        scr_sound("wea_plas");
        }
    if (vortexcyc==3)
        image_single=2;
    if (vortexcyc==5)
        image_single=3;
    if (vortexcyc==7)
        image_single=4;
    if (vortexcyc==9)
        image_single=5;
    if (vortexcyc==11)
        image_single=6;
    if (vortexcyc==13)
        image_single=7;
    if (vortexcyc==15)
        image_single=8;
    if (vortexcyc==17)
        image_single=9;
    if (vortexcyc==19)
        image_single=10;
    if (vortexcyc==21)
        image_single=11;
    if (vortexcyc==23)
        image_single=12;
    if (vortexcyc==25)
        image_single=13;
    if (vortexcyc==27){
        hspeed=0;
        vspeed=0;
        plasmavortex=0;
        perform=0;
        fakeperform=0;
        rageperform=0;
        scr_assassinpain(1);
        alarm[2]=30-global.difficulty*10;
        }
    }

//Megasmash
if (performsmash==1){
if (vspeed<0){
    if (image_single==0)
        image_single=1;
    else
        image_single=0;
    }
if (vspeed>0){
    vspeed=0;
    gravity=0;
    gosmash=1;
    scr_sound("glo_swipe");
    }
if (gosmash)
    smashcyc+=1;
if (smashcyc==1){
    image_single=2;
    y+=10;
    }
if (smashcyc==2){
    sprite_index=spr_asha_smash2;
    image_single=0;
    y+=30;
    }
if (smashcyc==3){
    image_single=1;
    y+=50;
    }
if (smashcyc==4){
    image_single=2;
    y+=80;
    }
if (smashcyc==5){
    scr_sound("exp_turret");
    scr_sound("exp_mpfb");
    scr_shakescreen(3);
    visible=0;
    instance_create(x,y-128,obj_megaflash);
    x=obj_sabot.x;
    y=obj_sabot.y;
    gravity=0;
    vspeed=0;
    megasmash=10;
    performsmash=0;
    alarm[2]=30;
    gosmash=0;
    smashcyc=0;
    obj_asha2safe.visible=0;
    if (global.specialbake==0){
        repeat(80)
            instance_create(smashx+random(384)-56,smashy-random(32),obj_ashadots);
        }
    with (obj_ashadots){
        speed=random(15);
        direction=point_direction(x,y,6176,3296);
        direction+=180;
        vspeed-=random(50);
        }
    }
}

//Dish out megasmashes
if (megasmash>0)
    megasmash-=1;
if (((megasmash==9 || megasmash==6 || megasmash==3) && global.specialbake==0) || megasmash==9){
    for (i=0; i<9; i+=1)
        instance_create(smashx+i*32,smashy,obj_ashasmash);
    if (obj_iji.x>=6016-6 && obj_iji.x<6336 && obj_iji.y<smashy && obj_iji.y>smashy-160){
        with (obj_iji){ //DAMAGE
            if (!takingpain && !recovering){
                global.hp-=3;
                global.damage+=3;
                scr_knockdown(1,2);
                if (sprite_index==spr_knockdown || sprite_index==spr_knockdownleft)
                    vspeed=-20;
                }
            }
        }
    }

//Avoid elec
if (hp>0 && visible && y>3040 && sprite_index!=spr_asha_smash2)
    scr_assassinpain(1);

//Execute upslash
if (sprite_index==spr_asha_upslash && visible){
    upslashwait+=1;
    if (upslashwait>60 && !upslashing){
        upslashing=1;
        alarm[1]=1;
        }
    if (obj_iji.y>y-32 && !upslashing){
        upslashing=1;
        alarm[1]=1;
        }
    if (distance_to_object(obj_iji)<64 && !upslashing){
        upslashing=1;
        alarm[0]=1;
        alarm[1]=5;
        }
    }

//Upercut box
if (sprite_index==spr_asha_uppercut && image_index==2)
    (instance_create(x,y-45,obj_assassin_uppercut)).facing=1;
if (sprite_index==spr_asha_uppercutleft && image_index==2)
    instance_create(x-50,y-45,obj_assassin_uppercut);

//Backstab box
if (sprite_index==spr_asha_backstab && image_index==1)
    (instance_create(x-10,y-5,obj_assassin_backstab)).facing=1;
if (sprite_index==spr_asha_backstableft && image_index==1)
    instance_create(x-65,y-5,obj_assassin_backstab);

//Upslash box
if (sprite_index==spr_asha_upslash && image_index==1)
    instance_create(x-35,y-64,obj_assassin_upslash);

//Downstab recovery
if(!place_free(x,y) && sprite_index==spr_asha_downstab && visible){
    alarm[2]=2;
    instance_create(bbox_left+((bbox_right-bbox_left)/2), bbox_top+((bbox_bottom-bbox_top)/2), obj_megaflash);
    visible=0;
    gravity=0;
    vspeed=0;
    sprite_index=spr_asha_pose1;
    }
if (vspeed>22)
    vspeed=22;
if (visible && sprite_index==spr_asha_downstab && y>obj_iji.y+64)
    scr_assassinpain(1);

//Weapon sparks
if (visible && instance_number(obj_asha2bar)==1){
smoke+=1;
if (smoke==5){
    smoke=0;
    if (sprite_index==spr_asha_pose1)
        instance_create(x+65,y+10,obj_shockemit);
    if (sprite_index==spr_asha_pose1left)
        instance_create(x-40,y+10,obj_shockemit);
    if (sprite_index==spr_asha_pose2)
        instance_create(x+45,y+42,obj_shockemit);
    if (sprite_index==spr_asha_pose2left)
        instance_create(x-12,y+42,obj_shockemit);
    }
}

//Change of plans
if (sprite_index==spr_asha_uppercut || sprite_index==spr_asha_uppercutleft || sprite_index==spr_asha_backstab || sprite_index==spr_asha_backstableft){
    if (visible && distance_to_object(obj_iji)>100){
        scr_assassinpain(1);
        alarm[2]=2;
        }
    if (visible && ((sprite_index==spr_asha_uppercut && (obj_iji.bbox_left+(obj_iji.bbox_right-obj_iji.bbox_left)/2 < bbox_left+(bbox_right-bbox_left)/2+10)) || (sprite_index==spr_asha_uppercutleft && (obj_iji.bbox_left+(obj_iji.bbox_right-obj_iji.bbox_left)/2 > bbox_left+(bbox_right-bbox_left)/2-10)))){
        if (alarm[1]>6){
            alarm[1]=5;
            alarm[0]=2;
            }
        }
    if (visible && ((sprite_index==spr_asha_backstab && (obj_iji.bbox_left+(obj_iji.bbox_right-obj_iji.bbox_left)/2 < bbox_left+(bbox_right-bbox_left)/2+10)) || (sprite_index==spr_asha_backstableft && (obj_iji.bbox_left+(obj_iji.bbox_right-obj_iji.bbox_left)/2 > bbox_left+(bbox_right-bbox_left)/2-10)))){
        if (alarm[1]>6){
            alarm[1]=4;
            alarm[0]=2;
            }
        }
    }
if (sprite_index==spr_asha_pose1 || sprite_index==spr_asha_pose1left || sprite_index==spr_asha_pose1fire || sprite_index==spr_asha_pose1fireleft || sprite_index==spr_asha_pose2 || sprite_index==spr_asha_pose2left){
    if (visible && distance_to_object(obj_iji)<30){
        scr_assassinpain(1);
        alarm[2]=2;
        }
    }

if ((sprite_index==spr_asha_wall || sprite_index==spr_asha_wallleft || (sprite_index==spr_asha_vortex && (image_single==0 || image_single==1))) && visible){
chargesoundcyc+=1;
if (chargesoundcyc>=5){
    chargesoundcyc=0;
    sound_frequency(snd_tor_gather,0.3);
    scr_sound("tor_gather");
    }
}
  Event (2,3): Actions{1}
    Action (603,1): Code[24 lines]
//Armor
if (armor<199.9)
    armor+=0.1;

//Pain from armordrop
if (armor<=0){
    hp-=1;
    if (((hp==9 || hp==7 || hp==5 || hp==3) && global.difficulty>0) || (hp>=2 && global.difficulty==0)){
        tempid=instance_create(bbox_left+((bbox_right-bbox_left)/2), bbox_top+((bbox_bottom-bbox_top)/2), obj_pickuphealth);
        if (tempid.x<5984)
            tempid.x=5984;
        if (tempid.x>6368)
            tempid.x=6368;
        if (tempid.y>3008)
            tempid.y=3008;
        }
    scr_assassinpain();
    }

//Return to sabot
if (!visible && angry){
    x=obj_sabot.x;
    y=obj_sabot.y;
    }
  Event (obj_bullet,4): Actions{1}
    Action (603,1): Code[2 lines]
if (visible)
scr_assassinpain(1);
  Event (obj_pellet,4): Actions{1}
    Action (603,1): Code[11 lines]
if (sprite_index!=spr_asha_smash && sprite_index!=spr_asha_smash2){
    armor+=-(9*(1+(global.attacklevel/10)));
    instance_create(other.x-3+random(7),other.y-3+random(7),obj_komatosplat);
    }

with (other){
    x+=(3-random(6));
    y+=(3-random(6));
    instance_create(x,y,obj_bullethit);
    instance_destroy();
    }
  Event (obj_kickbox,4): Actions{1}
    Action (603,1): Code[2 lines]
if (other.image_index==0 && visible)
    scr_assassinpain(1);
  Event (obj_rocketexplosion,4): Actions{1}
    Action (603,1): Code[2 lines]
if (!other.dud && visible)
    scr_assassinpain(1);
  Event (obj_mpfbexplosion,4): Actions{1}
    Action (603,1): Code[2 lines]
if (!other.dud && visible && angry)
    scr_assassinpain(1);
  Event (obj_pulse,4): Actions{1}
    Action (603,1): Code[2 lines]
if (visible)
scr_assassinpain(1);
  Event (obj_enemyrocketexplosion,4): Actions{1}
    Action (603,1): Code[2 lines]
if (!other.dud && visible)
    scr_assassinpain(1);
  Event (obj_shockexplosion,4): Actions{1}
    Action (603,1): Code[2 lines]
if (!other.dud && visible)
    scr_assassinpain(1);
  Event (obj_shockballexplosion,4): Actions{1}
    Action (603,1): Code[2 lines]
if (!other.dud && visible)
    scr_assassinpain(1);
  Event (obj_enemympfbexplosion,4): Actions{1}
    Action (603,1): Code[2 lines]
if (!other.dud && visible)
    scr_assassinpain(1);
  Event (obj_pushbox,4): Actions{1}
    Action (603,1): Code[2 lines]
if (!other.dud && visible)
    scr_assassinpain(1);
  Event (obj_thor,4): Actions{1}
    Action (603,1): Code[4 lines]
if (!other.dud && !thored && visible){
    scr_assassinpain(1);
    thored=1;
    }
  Event (obj_enemyshockballexplosion,4): Actions{1}
    Action (603,1): Code[2 lines]
if (!other.dud && visible)
    scr_assassinpain(1);
  Event (obj_enemyshockexplosion,4): Actions{1}
    Action (603,1): Code[2 lines]
if (!other.dud && visible)
    scr_assassinpain(1);
