Events{23}
  Event (0,0): Actions{1}
    Action (603,1): Code[26 lines]
nukepower=5; //damage
if (global.healthlevel==10)
    nukepower=4; //the Nuke is a Fatality attack
state=0;
antigrav=0;
hp=200;
maxhp=200;
armor=200;
maxarmor=200;
if (global.suddendeath){
    hp=1;
    maxhp=1;
    armor=100;
    maxarmor=100;
    }
resistance=1;
security=40;
hs=0;
vs=20;
image_single=0;
proxima=1;

//Measure arena
xleft=1216;
xright=1568;
xmiddle=1392;
  Event (0,2): Actions{1}
    Action (603,1): Code[2 lines]
idle=1;
state=0;
  Event (1,2): Actions{1}
    Action (603,1): Code[102 lines]
//Spread rockets
if (fire==1){
    scr_sound("wea_rock");
    if (x>obj_iji.x){
        tempid=instance_create(x+11,y,obj_komatorocket);
        tempid.speed=-global.rocketspeed;
        tempid.image_single=1;
        tempid=instance_create(x+11,y,obj_komatorocket);
        tempid.speed=global.rocketspeed-2;
        tempid.direction=174;
        tempid.image_single=1;
        tempid=instance_create(x+11,y,obj_komatorocket);
        tempid.speed=global.rocketspeed-4;
        tempid.direction=186;
        tempid.image_single=1;
        tempid=instance_create(x+11,y,obj_rocketlaunch);
        tempid.sprite_index=spr_rocketlaunchleft;
        }
    else{
        tempid=instance_create(x,y,obj_komatorocket);
        tempid.speed=global.rocketspeed;
        tempid.image_single=0;
        tempid=instance_create(x,y,obj_komatorocket);
        tempid.speed=global.rocketspeed-2;
        tempid.direction=6;
        tempid.image_single=0;
        tempid=instance_create(x,y,obj_komatorocket);
        tempid.speed=global.rocketspeed-4;
        tempid.direction=-6;
        tempid.image_single=0;
        instance_create(x,y,obj_rocketlaunch);
        }
    idle=1;
    fire=0;
    }

//Splintergun
if (fire==2){
    scr_sound("wea_spli");
    fireamount-=1;
    if (fireamount<=0){
        idle=1;
        fire=0;
        }
    else{
        instance_create(x,y,obj_shockspark);
        tempid=instance_create(x,y,obj_enemyshockball);
        tempid.direction=point_direction(x,y,xtarget,ytarget);
        tempid.speed=30;
        if (!global.specialbake){
            tempid=instance_create(x,y,obj_shockshell);
            tempid.vspeed=-(3+(random(6)));
            tempid.hspeed=-3+(random(6));
            tempid.short_=1;
            }
        alarm[1]=3;
        }
    }

//MPFB
if (fire==3){
    scr_sound("wea_mpfb");
    tempid=instance_create(x,y,obj_komatompfb);
    tempid.speed=global.mpfbspeed-10+global.difficulty*5;
    tempid.direction=point_direction(x,y,obj_iji.bbox_left+(obj_iji.bbox_right-obj_iji.bbox_left)/2,obj_iji.bbox_top+(obj_iji.bbox_bottom-obj_iji.bbox_top)/2)
    tempid.wakeless=1;
    tempid=instance_create(x,y,obj_komatompfb);
    tempid.speed=global.mpfbspeed-12+global.difficulty*4;
    tempid.direction=point_direction(x,y,obj_iji.bbox_left+(obj_iji.bbox_right-obj_iji.bbox_left)/2,obj_iji.bbox_top+(obj_iji.bbox_bottom-obj_iji.bbox_top)/2)
    tempid.wakeless=1;
    tempid=instance_create(x,y,obj_komatompfb);
    tempid.speed=global.mpfbspeed-14+global.difficulty*3;
    tempid.direction=point_direction(x,y,obj_iji.bbox_left+(obj_iji.bbox_right-obj_iji.bbox_left)/2,obj_iji.bbox_top+(obj_iji.bbox_bottom-obj_iji.bbox_top)/2)
    tempid.wakeless=1;
    idle=1;
    fire=0;
    scr_shakescreen(1);
    }

//Plasma cannon
if (fire==4){
    fireamount-=1;
    if (fireamount<=0){
        idle=1;
        fire=0;
        state=0;
        }
    else{
        scr_sound("wea_plas");
        scr_shakescreen(3);
        alarm[1]=30-global.difficulty*5;
        tempid=instance_create(x,y,obj_enemyplasmatrace);
        if (x>obj_iji.x){
            with (tempid)
                scr_enemyplasmatrace(0);
            }
        else{
            with (tempid)
                scr_enemyplasmatrace(1);
            }
        }
    }
  Event (2,2): Actions{1}
    Action (603,1): Code[146 lines]
if (instance_number(obj_iji)==1){

if (makebeep==1){
    makebeep=0;
    scr_sound("pro_beep1");
    }

//Move to middle
if (order==1){
    state=1;
    idle=1;
    if (x<xmiddle)
        xgashere=x+(abs(x-xleft))/2;
    else
        xgashere=xright+(abs(xright-x))/2;
    }

//Roam (and Rocket hail and Rocket)
if (order==2 || order==8){
    xdestination=x;
    ydestination=y;
    repeats=0;
    while(abs(y-ydestination)<250 && repeats<1000){
        repeats+=1;
        xdestination=xleft+random(352);
        ydestination=640+random(480);
        }
    if (x<xdestination)
        xgashere=x+(abs(x-xdestination))/2;
    else
        xgashere=xdestination+(abs(xdestination-x))/2;
    if (y<ydestination)
        ygashere=y+(abs(y-ydestination))/2;
    else
        ygashere=ydestination+(abs(ydestination-y))/2;
    state=2;
    idle=1;
    if (order==8){
        idle=0;
        alarm[0]=30;
        fire=5;
        scr_sound("wea_charge");
        }
    if (order==9){
        idle=0;
        alarm[0]=30;
        fire=6;
        scr_sound("wea_charge");
        }
    }

//Tackle
if (order==3){
    state=3;
    alarm[0]=150;
    }

//Spread rockets
if (order==4){
    ydestination=obj_iji.y;
    if (ydestination>1152)
        ydestination=1152;
    if (y<ydestination)
        ygashere=y+(abs(y-ydestination))/2;
    else
        ygashere=ydestination+(abs(ydestination-y))/2;
    alarm[1]=60-global.difficulty*20;
    fire=1;
    state=4;
    scr_sound("wea_charge");
    }

//Splintergun
if (order==5){
    xdestination=x;
    ydestination=y;
    repeats=0;
    while(abs(y-ydestination)<250 && repeats<1000){
        repeats+=1;
        xdestination=xleft+random(352);
        ydestination=640+random(480);
        }
    if (x<xdestination)
        xgashere=x+(abs(x-xdestination))/2;
    else
        xgashere=xdestination+(abs(xdestination-x))/2;
    if (y<ydestination)
        ygashere=y+(abs(y-ydestination))/2;
    else
        ygashere=ydestination+(abs(ydestination-y))/2;
    state=2;
    idle=1;
    fire=2;
    fireamount=21;
    xtarget=obj_iji.bbox_left+(obj_iji.bbox_right-obj_iji.bbox_left)/2;
    ytarget=obj_iji.bbox_top+(obj_iji.bbox_bottom-obj_iji.bbox_top)/2;
    alarm[1]=20-global.difficulty*5;
    }

//MPFB
if (order==6){
    ydestination=obj_iji.y;
    if (ydestination>1152)
        ydestination=1152;
    if (y<ydestination)
        ygashere=y+(abs(y-ydestination))/2;
    else
        ygashere=ydestination+(abs(ydestination-y))/2;
    alarm[1]=30-global.difficulty*5;
    fire=3;
    state=4;
    sound_frequency(snd_tor_gather,0.1);
    scr_sound("tor_gather");
    }

//Plasma cannon
if (order==7){
    state=5;
    alarm[1]=60-global.difficulty*20;
    fire=4;
    fireamount=4+global.difficulty;
    sound_frequency(snd_tor_gather,0.1);
    scr_sound("tor_gather");
    }
}

//Nuke
if (order==9){
    scr_sound("pro_beep3");
    sndchargecyc=0;
    sndcharge=0;
    sndchargecycmax=15;
    state=2;
    fire=7;
    xdestination=xmiddle;
    ydestination=1060;
    idle=1;
    if (x<xmiddle)
        xgashere=x+(abs(x-xdestination))/2;
    else
        xgashere=xdestination+(abs(xdestination-x))/2;
    if (y<1050)
        ygashere=y+(abs(y-ydestination))/2;
    else
        ygashere=ydestination+(abs(ydestination-y))/2;
    }
  Event (3,2): Actions{1}
    Action (603,1): Code[33 lines]
//Nuke attack

chargingnuke=0;
obj_sabot.flash=0;
with (obj_proximasupercharge)
    instance_destroy();

//Iji is not affected during ougi
if (instance_number(obj_ougi)==0){
    with (obj_iji){
        fatality=1;
        takingpain=0;
        global.damage+=obj_proxima.nukepower;
        global.armor=0;
        global.hp-=obj_proxima.nukepower;
        if (x<obj_proxima.x)
            scr_knockdown(1,25-global.assimilatelevel/2);
        else
            scr_knockdown(2,25-global.assimilatelevel/2);
        }
    }
with (obj_paper)
    dead=1;
instance_create(x,y,obj_harmlessexplosion);
(instance_create(x,y,obj_nuke)).proxima=1;
scr_sound("exp_nuke");
antigrav=1;
streaming=1;
gasu=10;
order=2;
fire=0;
alarm[2]=30;

  Event (4,2): Actions{1}
    Action (603,1): Code[6 lines]
if (electrified>0){
    alarm[4]=5;
    instance_create(x-32+random(64),y-32+random(64),obj_nanospark);
    }
electrified-=1;

  Event (5,2): Actions{1}
    Action (603,1): Code[26 lines]
//Failsafe orders
alarm[5]=30;
if (order!=1 && order!=3 && !chargingnuke && electrified==0){
    if (x<(xleft-128) || x>(xright+128)){
        state=1;
        idle=0;
        fire=0;
        order=1;
        alarm[0]=0;
        alarm[1]=0;
        alarm[2]=1;
        alarm[3]=0;
        }
    }

//Last resort safety catch
if (ydestination<608 || ydestination>1152 || xdestination<1088 || xdestination>1664){
    state=1;
    idle=0;
    fire=0;
    order=1;
    alarm[0]=0;
    alarm[1]=0;
    alarm[2]=1;
    alarm[3]=0;
}
  Event (0,3): Actions{1}
    Action (603,1): Code[424 lines]
xtargetprev=obj_iji.bbox_left+(obj_iji.bbox_right-obj_iji.bbox_left)/2;
ytargetprev=obj_iji.bbox_top+(obj_iji.bbox_bottom-obj_iji.bbox_top)/2;
xtarget=xtargetprev-(xtargetprev-xtarget)/1.02;
ytarget=ytargetprev-(ytargetprev-ytarget)/1.02;

cfised=0;
thored=0;
if (instance_number(obj_iji)==0){
    order=0;
    state=0;
    fire=0;
    alarm[1]=0;
    alarm[2]=0;
    alarm[3]=0;
    alarm[4]=0;
    chargingnuke=0;
    with (obj_proximasupercharge)
        instance_destroy();
    }

//Charge Nuke
if (chargingnuke){
    if (alarm[3]<30)
        obj_sabot.flash+=0.035;
    else
        obj_sabot.flash+=0.0212;
    instance_create(x-512+random(1024),y-512+random(1024),obj_proximasupercharge);
    sndchargecyc+=1;
    if (sndchargecyc>=sndchargecycmax){
        sndchargecycmax-=0.268;
        sndcharge+=1;
        sndchargecyc=0;
        sound_frequency(snd_tor_gather,0.05+(sndcharge*0.014));
        scr_sound("tor_gather");
        }
    }

//Move left or right until halfway to "middle"
if (state==1){
    if (x<xgashere && x<xmiddle-16)
        gasr=2;
    if (x>xgashere && x>xmiddle+16)
        gasl=2;
    }

//Move freely until halfway to target
if (state==2){
    if (x<xgashere && x<xdestination-16)
        gasr=2;
    if (x>xgashere && x>xdestination+16)
        gasl=2;
    if (y<ygashere && y<ydestination-16)
        gasd=2;
    if (y>ygashere && y>ydestination+16)
        gasu=2;
    }

//Tackle (move towards Iji)
if (state==3){
    if (collision_line(x,y,obj_iji.x,obj_iji.y,obj_block,0,1)){
        if (x>xmiddle){
            if (x<xright){
                if (y<obj_iji.y-20)
                    gasd=2;
                if (y>obj_iji.y-20)
                    gasu=2;
                }
            gasl=2;
            gasr=0;
            }
        else{
            if (x>xleft){
                if (y<obj_iji.y-20)
                    gasd=2;
                if (y>obj_iji.y)
                    gasu=2;
                }
            gasl=0;
            gasr=2;
            }
        }
    else{
        if (x<obj_iji.x-20)
            gasr=2;
        if (x>obj_iji.x+32)
            gasl=2;
        if (y<obj_iji.y-20)
            gasd=2;
        if (y>obj_iji.y)
            gasu=2;
        }
    }

//Spread rockets (and MPFB)
if (state==4){
    if (y<ygashere && y<ydestination-16)
        gasd=2;
    if (y>ygashere && y>ydestination+16)
        gasu=2;
    if (fire==1)
        instance_create(x-30+random(60),y-30+random(60),obj_bigsmoke);
    if (fire==3)
        instance_create(x-30+random(60),y-30+random(60),obj_mpfbspark);
    }

//Splintergun emit sparks
if (fire==2)
    instance_create(x-30+random(60),y-30+random(60),obj_shockemit);
//Rocket hail emit smoke
if (fire==5)
        instance_create(x-30+random(60),y-30+random(60),obj_bigsmoke);

//Plasma cannon
if (state==5){
    if (y<obj_iji.y+20 && y<1168)
        gasd=2;
    if (y>obj_iji.y+20)
        gasu=2;
    instance_create(x-30+random(60),y-30+random(60),obj_shockemit);
    }

//REROLL ORDERS WHEN IDLE (done with current order)
if (idle && abs(hs)<=4 && abs(vs)<=4 && gasl==0 && gasr==0 && gasu==0 && gasd==0 && (fire!=7 || abs(hs)<5)){
    //After electrocution
    if (electrified>0){
        order=3;
        alarm[2]=1;
        idle=0;
        }
    //Move around while Splintergunning
    else if (fire==2){
        order=2;
        alarm[2]=1;
        idle=0;
        }
    //After Rocket hail
    else if (fire==5){
        scr_sound("wea_rock");
        repeat(5+global.difficulty*2)
            instance_create(x,y,obj_rockethail);
        repeat(5)
            instance_create(x,y,obj_smokepoint);
        order=2+ceil(random(6));
        alarm[2]=1;
        idle=0;
        fire=0;
        }
    //Power down and charge Nuke
    else if (fire==7){
        order=0;
        idle=0;
        fire=0;
        streaming=0;
        antigrav=0;
        nukewait=0;
        alarm[3]=450;
        chargingnuke=1;
        scr_sound("pro_powerdown");
        }
    //Normal stuff
    else{
        idle=0;
        state=0;
        if (x<xleft || x>xright)
            order=1;
        else{
            nukewait+=1;
            if (nukewait>=10+global.difficulty*2){
                order=9;
                }
            else
                order=2+ceil(random(6));
            }
        alarm[2]=1;
        }
    }

//No antigrav
if (!antigrav && (place_free(x,y+vs+1)))
    vs+=1;

//Limit speed
if (hs>20)
    hs=20;
if (vs>20)
    vs=20;
if (hs<-20)
    hs=-20;
if (vs<-20)
    vs=-20;
if (hs>-0.25 && hs<0.25)
    hs=0;
if (vs>-0.25 && vs<0.25)
    vs=0;

//Move
x+=hs;
y+=vs;

//Collisions
//Ortagonal
ortagonal=0;
if (!place_free(x+hs,y+vs)){
    if (abs(hs)+abs(vs)>5){
        scr_shakescreen(1);
        scr_sound("glo_land");
        with (obj_paper){
            if (distance_to_object(obj_proxima)<64 && dead==0)
                dead=1;
            }
        }
    if (!place_free(x,y-abs(vs))){
        move_contact_solid(90,30);
        vs*=-0.5;
        if (vs<2)
            vs=2;
        ortagonal=1;
        }
    else if (!place_free(x,y+abs(vs))){
        move_contact_solid(270,30);
        if (!antigrav && vs>3){
            instance_create(x-32,y+54,obj_smoke);
            instance_create(x+32,y+54,obj_smoke);
            repeat(5)
                instance_create(x-32+random(64),y+50+random(8),obj_smoke);
            }
        vs*=-0.5;
        ortagonal=1;
        if (vs>-2 && antigrav)
            vs=-2;
        }
    if (!place_free(x-abs(hs),y)){
        move_contact_solid(180,30);
        hs*=-0.5;
        if (hs<2)
            hs=2;
        ortagonal=1;
        }
    else if (!place_free(x+abs(hs),y)){
        move_contact_solid(0,30);
        hs*=-0.5;
        if (hs>-2)
            hs=-2;
        ortagonal=1;
        }
//Diagonal
    if (!place_free(x-abs(hs),y-abs(vs)) && !ortagonal){
        move_contact_solid(135,30);
        hs*=-0.5;
        vs*=-0.5;
        }
    else if (!place_free(x-abs(hs),y+abs(vs)) && !ortagonal){
        move_contact_solid(225,30);
        hs*=-0.5;
        vs*=-0.5;
        }
    else if (!place_free(x+abs(hs),y+abs(vs)) && !ortagonal){
        move_contact_solid(315,30);
        hs*=-0.5;
        vs*=-0.5;
        }
    else if (!place_free(x+abs(hs),y-abs(vs)) && !ortagonal){
        move_contact_solid(45,30);
        hs*=-0.5;
        vs*=-0.5;
        }
    }

//Gas
if (gasl>0){
    if (antigrav)
        hs-=0.25;
    gasl-=1;
    }
else if(hs<0 && antigrav)
    hs+=0.25;

if (gasr>0){
    if (antigrav)
        hs+=0.25;
    gasr-=1;
    }
else if(hs>0 && antigrav)
    hs-=0.25;

if (gasu>0){
    if (antigrav)
        vs-=0.25;
    gasu-=1;
    }
else if(vs<0 && antigrav)
    vs+=0.25;

if (gasd>0){
    if (antigrav)
        vs+=0.25;
    gasd-=1;
    }
else if(vs>0 && antigrav)
    vs-=0.25;

//Exhaust gas and move
if (gasl<1) gasl=0;
if (gasd<1) gasd=0;
if (gasr<1) gasr=0;
if (gasu<1) gasu=0;
if (hs>-0.25 && hs<0.25) hs=0;
if (vs>-0.25 && vs<0.25) vs=0;

//Rest and friction
if (!antigrav && !place_free(x,y+1)){
    if (vs>0 && vs<1){
        move_contact_solid(270,10)
        vs=0;
        }
    if (hs<-1)
        hs+=0.5;
    else if (hs>1)
        hs-=0.5;
    else
        hs=0;
    }

//Wave
if (antigrav && streamcyc==0){
    if (gasu) (instance_create(x+hs-64,y+vs-64,obj_proxima_wave)).sprite_index=spr_proxima_wavedown;
    if (gasl) (instance_create(x+hs-64,y+vs-64,obj_proxima_wave)).sprite_index=spr_proxima_waveright;
    if (gasd) (instance_create(x+hs-64,y+vs-64,obj_proxima_wave)).sprite_index=spr_proxima_waveup;
    if (gasr) (instance_create(x+hs-64,y+vs-64,obj_proxima_wave)).sprite_index=spr_proxima_waveleft;
    }

//Armor
if (armor<=0){
    hp-=1;
    while (armor<=0)
    armor+=200;
    }
if (armor<199.9)
    armor+=0.1;

//Stuck
if (!place_free(x,y)){
    if (place_free(x-16,y-16))
        move_outside_solid(135,32);
    else if (place_free(x-16,y+16))
        move_outside_solid(225,32);
    else if (place_free(x+16,y+16))
        move_outside_solid(315,32);
    else if (place_free(x+16,y-16))
        move_outside_solid(45,32);
    }

//Change image
if (hp<=200-((image_single+1)*50) && hp>10){
    scr_shakescreen(3);
    obj_sabot.flash=0.2;
    image_single+=1;
    if (image_single==1)
        (instance_create(x+44,y-29,obj_proximacord)).type=1;
    if (image_single==2)
        (instance_create(x-49,y+9,obj_proximacord)).type=2;
    if (image_single==3)
        (instance_create(x+27,y+43,obj_proximacord)).type=3;
    repeat(5)
        instance_create(x-32+random(64),y-32+random(64),obj_smokepoint);
    repeat(4)
        instance_create(x-32+random(64),y-32+random(64),obj_nanospark);
    if (global.detail==0){
        repeat(30){
            tempid=instance_create(x-32+random(64),y-32+random(64),obj_scrapwhite);
            tempid.direction=random(360);
            tempid.speed=random(10)+6;
            }
    repeat(20)
        instance_create(x-32+random(64),y-32+random(64),obj_thorspark);
        }
    }

//Death
if (hp<=0){
    if (!nosupercharge)
        instance_create(x,y,obj_supercharge);
    scr_sound("exp_boss");
    with (obj_sabot)
        scr_stopmusic();
    obj_proximatrigger.alarm[2]=20;
    repeat(10)
        instance_create(x,y,obj_nanospark2);
    with (obj_proximacord)
        instance_destroy();
    scr_shakescreen(4);
    instance_create(x,y,obj_harmlessexplosion);
    repeat(5)
        instance_create(x,y,obj_smokepoint);
    obj_sabot.flash=0.8;
    repeat(150)
        instance_create(obj_proxima.x-100+random(200),obj_proxima.y-100+random(200),obj_proximaflash);
    instance_create(bbox_left+((bbox_right-bbox_left)/2), bbox_top+((bbox_bottom-bbox_top)/2),obj_megaflare);
    obj_proximatrigger.alarm[1]=90;
    with (obj_enemyrocket)
        instance_destroy();
    with (obj_komatorocket)
        instance_destroy();
    with (obj_enemympfb)
        instance_destroy();
    with (obj_komatompfb)
        instance_destroy();
    with (obj_enemyshockball)
        instance_destroy();
    with (obj_rockethail)
        instance_destroy();
    with (obj_proximasupercharge)
        instance_destroy();
    repeat(70)
        instance_create(x-32+random(64),y-32+random(64),obj_shardhail);
    repeat(20)
        instance_create(x-32+random(64),y-32+random(64),obj_thorspark);
    (instance_create(x,y,obj_whiteblanket)).alarm[0]=2;
    instance_destroy();
    }

//Electrified
if (electrified>0)
    instance_create(x-64+random(128),y-64+random(128),obj_bigsmoke);
  Event (obj_bullet,4): Actions{1}
    Action (603,1): Code[7 lines]
with (other){
    x+=(3-random(6));
    y+=(3-random(6));
    instance_create(x,y,obj_bullethit);
    instance_create(x,y,obj_smoke);
    instance_destroy();
    }
  Event (obj_pellet,4): Actions{1}
    Action (603,1): Code[7 lines]
with (other){
    x+=(3-random(6));
    y+=(3-random(6));
    instance_create(x,y,obj_bullethit);
    instance_create(x,y,obj_smoke);
    instance_destroy();
    }
  Event (obj_kickbox,4): Actions{1}
    Action (603,1): Code[26 lines]
if (!ignorekick && other.image_index==0){
    scr_sound("glo_kick");
    script_execute(scr_shakescreen,1);
    repeat(3){
        tempid=instance_create(other.x+18,other.y+10,obj_scrapwhite);
        tempid.speed=global.strengthlevel*0.25+10;
        if (global.facing==0)
            tempid.direction=random(180)-90;
        else
            tempid.direction=random(180)+90;
        }
    if (other.sprite_index==spr_detonator){
        if (x<other.x && place_free(x-4,y))
            hs=-(8+global.strengthlevel*0.5);
        else if (place_free(x+4,y))
            hs=8+global.strengthlevel*0.5;
        }
    else{
        if (global.facing==0 && place_free(x-4,y))
            hs=-(10+global.strengthlevel*0.25);
        else if (place_free(x+4,y))
            hs=10+global.strengthlevel*0.25;
        }
    if (place_free(x,y-6) && !place_free(x,y+6) && !streaming)
        vs-=5;
    }
  Event (obj_rocketexplosion,4): Actions{1}
    Action (603,1): Code[8 lines]
if (other.dud==0){
    hp+=-(1*(1+(global.attacklevel/10)));
    hstemp=5-(distance_to_object(obj_explosioncenter)/10);
    if (x<obj_iji.x)
        hstemp*=-1;
    hs+=hstemp;
    scr_sound("pro_beep2");
    }
  Event (obj_mpfbexplosion,4): Actions{1}
    Action (603,1): Code[10 lines]
if (other.dud==0){
    hp+=-(1.5*(1+(global.attacklevel/10)));
    hstemp=5-(distance_to_object(obj_explosioncenter)/10);
    if (hstemp<1)
        hstemp=1;
    if (x<obj_iji.x)
        hstemp*=-1;
    hs+=hstemp;
    scr_sound("pro_beep2");
    }
  Event (obj_pulse,4): Actions{1}
    Action (603,1): Code[4 lines]
with (other){
    scr_pulseexplosion();
    instance_destroy();
    }
  Event (obj_enemyrocketexplosion,4): Actions{1}
    Action (603,1): Code[8 lines]
if (other.dud==0){
    hp-=1;
    hstemp=5-(distance_to_object(obj_explosioncenter)/10);
    if (x<other.x)
        hstemp*=-1;
    hs+=hstemp;
    scr_sound("pro_beep2");
    }
  Event (obj_shockexplosion,4): Actions{1}
    Action (603,1): Code[8 lines]
if (other.dud==0){
    hp+=-(1*(1+(global.attacklevel/10)));
    hstemp=5-(distance_to_object(obj_explosioncenter)/10);
    if (x<obj_iji.x)
        hstemp*=-1;
    hs+=hstemp;
    scr_sound("pro_beep2");
    }
  Event (obj_enemympfbexplosion,4): Actions{1}
    Action (603,1): Code[10 lines]
if (other.dud==0){
    hp-=1.5;
    hstemp=5-(distance_to_object(obj_explosioncenter)/10);
    if (hstemp<1)
        hstemp=1;
    if (x<other.x)
        hstemp*=-1;
    hs+=hstemp;
    scr_sound("pro_beep2");
    }
  Event (obj_pushbox,4): Actions{1}
    Action (603,1): Code[5 lines]
if (dead==0){
    global.erasetop=0;
    global.topmessage="You need a Crack skill of "+string(security)+" to crack Sentinel Proxima";
    scr_sound("glo_crackfail");
    }
  Event (obj_xp,4): Actions{1}
    Action (603,1): Code[1 lines]
//Do nothing
  Event (obj_thor,4): Actions{1}
    Action (603,1): Code[4 lines]
if (thored==0){
    armor+=-(35*(1+(global.attacklevel/10)));
    thored=1;
    }
  Event (obj_proximasupercharge,4): Actions{1}
    Action (603,1): Code[4 lines]
with (other){
    (instance_create(x,y,obj_ijisplat)).direction=direction+180;
    instance_destroy();
    }
  Event (obj_electropad,4): Actions{1}
    Action (603,1): Code[46 lines]
if (other.active){
    nosupercharge=1;
    scr_sound("glo_electrocute");
    (instance_create(x,y,obj_whiteblanket)).alarm[0]=2;
    if (other.tag==1)
        obj_proximatrigger.elecpad1=0;
    else
        obj_proximatrigger.elecpad2=0;
    other.active=0;
    hp-=(45-global.difficulty*10);
    chargingnuke=0;
    with (obj_proximasupercharge)
        instance_destroy();
    obj_sabot.flash=1;
    scr_shakescreen(5);
    nukewait=0;
    order=1;
    state=0;
    hs=0;
    vs=0;
    gasl=0;
    gasd=0;
    gasu=0;
    gasr=0;
    streaming=1;
    antigrav=1;
    fire=0;
    idle=0;
    electrified=30;
    alarm[0]=0;
    alarm[1]=0;
    alarm[2]=60;
    alarm[4]=5;
    alarm[3]=0;
    alarm[5]=90;
    makebeep=1;
    repeat(5)
        instance_create(x-32+random(64),y-32+random(64),obj_smokepoint);
    if (global.detail==0){
        repeat(30){
            tempid=instance_create(x-32+random(64),y-32+random(64),obj_scrapwhite);
            tempid.direction=random(360);
            tempid.speed=random(10)+6;
            }
        }
    }
  Event (0,8): Actions{1}
    Action (603,1): Code[73 lines]
//Draw
if (obj_proximatrigger.commence)
    scr_proximaarrow();
draw_sprite(sprite_index,image_single,x,y);
if (streaming)
    draw_sprite(spr_proxima_streams,streamcyc,x-64,y-64);
streamcyc+=1;
if (streamcyc>=4)
    streamcyc=0;

//Draw target
if (state==3){
    temprand=floor(random(3));
    if (global.specialbake)
        temprand=1;
    if (temprand>0){
        pen_size=temprand;
        pen_color=c_ltgray;
        draw_line(x,y,obj_iji.bbox_left,obj_iji.bbox_top);
        draw_line(x,y,obj_iji.bbox_right,obj_iji.bbox_bottom);
        }
    }
if (fire==2){
    temprand=floor(random(3));
    if (global.specialbake)
        temprand=1;
    if (temprand>0){
        pen_size=temprand;
        pen_color=c_red;
        draw_line(x,y,xtarget,ytarget);
        }
    }
if (fire==3){
    temprand=floor(random(3));
    if (global.specialbake)
        temprand=1;
    if (temprand>0){
        pen_size=temprand;
        pen_color=c_aqua;
        draw_line(x,y,obj_iji.bbox_left+(obj_iji.bbox_right-obj__iji.bbox_left)/2,obj_iji.bbox_top+(obj_iji.bbox_bottom-obj__iji.bbox_top)/2);
        }
    }
if (fire==4){
    with (obj_proximalaser){
        x=obj_proxima.x;
        y=obj_proxima.y;
        repeats=0;
        if (obj_proxima.x>obj_iji.x){
            while (place_free(x,y) && !place_meeting(x,y,obj_iji) && repeats<1000){
                repeats+=1;
                x-=10;
                }
            if (!place_free(x,y))
                move_outside_solid(0,32);
            }
        else{
            while (place_free(x,y) && !place_meeting(x,y,obj_iji) && repeats<1000){
                repeats+=1;
                x+=10;
                }
            if (!place_free(x,y))
                move_outside_solid(180,32);
            }
        }
    temprand=floor(random(3));
    if (global.specialbake)
        temprand=1;
    if (temprand>0){
        pen_size=temprand;
        pen_color=c_red;
        draw_line(x,y,obj_proximalaser.x,obj_proximalaser.y);
        }
    }
