Events{5}
  Event (0,2): Actions{1}
    Action (603,1): Code[1 lines]
obj_iji.sprite_index=spr_basic;
  Event (1,2): Actions{1}
    Action (603,1): Code[1 lines]
kroteradead=1;
  Event (2,2): Actions{1}
    Action (603,1): Code[2 lines]
with (obj_cdoor)
vspeed=0;
  Event (0,3): Actions{1}
    Action (603,1): Code[30 lines]
if (obj_iji.x>x-32 && !ultrigger){
    ultrigger=1;
    obj_sabot.ultimatecannotpause=1;
    }

if (!triggered2 && !global.ignoreall){
triggered2=1;
obj_krotera.alarm[2]=30;
instance_create(x,y,obj_kroterabar);
scr_sound("kro_emote2");
}

if (!superkd && kroteradead && ((abs(obj_iji.x-obj_krotera.x-80)<96 && obj_krotera.sprite_index==spr_krotera_death) || (abs(obj_iji.x-obj_krotera.x+50)<96 && obj_krotera.sprite_index==spr_krotera_deathleft)) && global.hp>0 && !obj_iji.takingpain && (obj_iji.sprite_index==spr_basic || obj_iji.sprite_index==spr_basicleft || obj_iji.sprite_index==spr_run || obj_iji.sprite_index==spr_runleft)){
superkd=1;
obj_iji.takingpain=1;
global.ignoreall=1;
if (obj_krotera.sprite_index==spr_krotera_death)
    obj_krotera.kdx=83;
else
    obj_krotera.kdx=-70;
if (obj_iji.x>obj_krotera.x+obj_krotera.kdx){
    global.facing=0;
    obj_iji.sprite_index=spr_basicleft;
    }
else{
    global.facing=1;
    obj_iji.sprite_index=spr_basic;
    }
(instance_create(obj_iji.x,obj_iji.y,obj_trigger)).textid="chat35";
}
  Event (obj_iji,4): Actions{1}
    Action (603,1): Code[13 lines]
if (!triggered){
triggered=1;
with (obj_cdoor){
    if (tag){
        scr_sound("glo_doorclose");
        vspeed=16;
        }
    }
alarm[2]=7;
obj_iji.speed=0;
obj_iji.sprite_index=spr_basic;
(instance_create(obj_iji.x,obj_iji.y,obj_trigger)).textid="chat34";
}
